<?xml version="1.0" encoding="utf-8" standalone="no"?>
<!DOCTYPE svg PUBLIC "-//W3C//DTD SVG 1.1//EN"
  "http://www.w3.org/Graphics/SVG/1.1/DTD/svg11.dtd">
<svg xmlns:xlink="http://www.w3.org/1999/xlink" width="864pt" height="864pt" viewBox="0 0 864 864" xmlns="http://www.w3.org/2000/svg" version="1.1">
 <metadata>
  <rdf:RDF xmlns:dc="http://purl.org/dc/elements/1.1/" xmlns:cc="http://creativecommons.org/ns#" xmlns:rdf="http://www.w3.org/1999/02/22-rdf-syntax-ns#">
   <cc:Work>
    <dc:type rdf:resource="http://purl.org/dc/dcmitype/StillImage"/>
    <dc:date>2025-01-21T18:43:43.536871</dc:date>
    <dc:format>image/svg+xml</dc:format>
    <dc:creator>
     <cc:Agent>
      <dc:title>Matplotlib v3.10.0, https://matplotlib.org/</dc:title>
     </cc:Agent>
    </dc:creator>
   </cc:Work>
  </rdf:RDF>
 </metadata>
 <defs>
  <style type="text/css">*{stroke-linejoin: round; stroke-linecap: butt}</style>
 </defs>
 <g id="figure_1">
  <g id="patch_1">
   <path d="M 0 864 
L 864 864 
L 864 0 
L 0 0 
z
" style="fill: #ffffff"/>
  </g>
  <g id="axes_1">
   <g id="patch_2">
    <path d="M 75.18 286.9925 
L 853.2 286.9925 
L 853.2 32.47875 
L 75.18 32.47875 
z
" style="fill: #ffffff"/>
   </g>
   <g id="matplotlib.axis_1">
    <g id="xtick_1">
     <g id="line2d_1">
      <path d="M 224.018609 286.9925 
L 224.018609 32.47875 
" clip-path="url(#pc5bc3f4c64)" style="fill: none; stroke: #cccccc; stroke-width: 0.8; stroke-linecap: round"/>
     </g>
    </g>
    <g id="xtick_2">
     <g id="line2d_2">
      <path d="M 386.388 286.9925 
L 386.388 32.47875 
" clip-path="url(#pc5bc3f4c64)" style="fill: none; stroke: #cccccc; stroke-width: 0.8; stroke-linecap: round"/>
     </g>
    </g>
    <g id="xtick_3">
     <g id="line2d_3">
      <path d="M 548.757391 286.9925 
L 548.757391 32.47875 
" clip-path="url(#pc5bc3f4c64)" style="fill: none; stroke: #cccccc; stroke-width: 0.8; stroke-linecap: round"/>
     </g>
    </g>
    <g id="xtick_4">
     <g id="line2d_4">
      <path d="M 711.126783 286.9925 
L 711.126783 32.47875 
" clip-path="url(#pc5bc3f4c64)" style="fill: none; stroke: #cccccc; stroke-width: 0.8; stroke-linecap: round"/>
     </g>
    </g>
   </g>
   <g id="matplotlib.axis_2">
    <g id="ytick_1">
     <g id="line2d_5">
      <path d="M 75.18 274.80442 
L 853.2 274.80442 
" clip-path="url(#pc5bc3f4c64)" style="fill: none; stroke: #cccccc; stroke-width: 0.8; stroke-linecap: round"/>
     </g>
     <g id="line2d_6"/>
     <g id="text_1">
      <!-- 0 -->
      <g style="fill: #262626" transform="translate(65.562969 278.741216) scale(0.11 -0.11)">
       <defs>
        <path id="ArialMT-30" d="M 266 2259 
Q 266 3072 433 3567 
Q 600 4063 929 4331 
Q 1259 4600 1759 4600 
Q 2128 4600 2406 4451 
Q 2684 4303 2865 4023 
Q 3047 3744 3150 3342 
Q 3253 2941 3253 2259 
Q 3253 1453 3087 958 
Q 2922 463 2592 192 
Q 2263 -78 1759 -78 
Q 1097 -78 719 397 
Q 266 969 266 2259 
z
M 844 2259 
Q 844 1131 1108 757 
Q 1372 384 1759 384 
Q 2147 384 2411 759 
Q 2675 1134 2675 2259 
Q 2675 3391 2411 3762 
Q 2147 4134 1753 4134 
Q 1366 4134 1134 3806 
Q 844 3388 844 2259 
z
" transform="scale(0.015625)"/>
       </defs>
       <use xlink:href="#ArialMT-30"/>
      </g>
     </g>
    </g>
    <g id="ytick_2">
     <g id="line2d_7">
      <path d="M 75.18 219.90059 
L 853.2 219.90059 
" clip-path="url(#pc5bc3f4c64)" style="fill: none; stroke: #cccccc; stroke-width: 0.8; stroke-linecap: round"/>
     </g>
     <g id="line2d_8"/>
     <g id="text_2">
      <!-- 1 -->
      <g style="fill: #262626" transform="translate(65.562969 223.837387) scale(0.11 -0.11)">
       <defs>
        <path id="ArialMT-31" d="M 2384 0 
L 1822 0 
L 1822 3584 
Q 1619 3391 1289 3197 
Q 959 3003 697 2906 
L 697 3450 
Q 1169 3672 1522 3987 
Q 1875 4303 2022 4600 
L 2384 4600 
L 2384 0 
z
" transform="scale(0.015625)"/>
       </defs>
       <use xlink:href="#ArialMT-31"/>
      </g>
     </g>
    </g>
    <g id="ytick_3">
     <g id="line2d_9">
      <path d="M 75.18 164.996761 
L 853.2 164.996761 
" clip-path="url(#pc5bc3f4c64)" style="fill: none; stroke: #cccccc; stroke-width: 0.8; stroke-linecap: round"/>
     </g>
     <g id="line2d_10"/>
     <g id="text_3">
      <!-- 2 -->
      <g style="fill: #262626" transform="translate(65.562969 168.933558) scale(0.11 -0.11)">
       <defs>
        <path id="ArialMT-32" d="M 3222 541 
L 3222 0 
L 194 0 
Q 188 203 259 391 
Q 375 700 629 1000 
Q 884 1300 1366 1694 
Q 2113 2306 2375 2664 
Q 2638 3022 2638 3341 
Q 2638 3675 2398 3904 
Q 2159 4134 1775 4134 
Q 1369 4134 1125 3890 
Q 881 3647 878 3216 
L 300 3275 
Q 359 3922 746 4261 
Q 1134 4600 1788 4600 
Q 2447 4600 2831 4234 
Q 3216 3869 3216 3328 
Q 3216 3053 3103 2787 
Q 2991 2522 2730 2228 
Q 2469 1934 1863 1422 
Q 1356 997 1212 845 
Q 1069 694 975 541 
L 3222 541 
z
" transform="scale(0.015625)"/>
       </defs>
       <use xlink:href="#ArialMT-32"/>
      </g>
     </g>
    </g>
    <g id="ytick_4">
     <g id="line2d_11">
      <path d="M 75.18 110.092931 
L 853.2 110.092931 
" clip-path="url(#pc5bc3f4c64)" style="fill: none; stroke: #cccccc; stroke-width: 0.8; stroke-linecap: round"/>
     </g>
     <g id="line2d_12"/>
     <g id="text_4">
      <!-- 3 -->
      <g style="fill: #262626" transform="translate(65.562969 114.029728) scale(0.11 -0.11)">
       <defs>
        <path id="ArialMT-33" d="M 269 1209 
L 831 1284 
Q 928 806 1161 595 
Q 1394 384 1728 384 
Q 2125 384 2398 659 
Q 2672 934 2672 1341 
Q 2672 1728 2419 1979 
Q 2166 2231 1775 2231 
Q 1616 2231 1378 2169 
L 1441 2663 
Q 1497 2656 1531 2656 
Q 1891 2656 2178 2843 
Q 2466 3031 2466 3422 
Q 2466 3731 2256 3934 
Q 2047 4138 1716 4138 
Q 1388 4138 1169 3931 
Q 950 3725 888 3313 
L 325 3413 
Q 428 3978 793 4289 
Q 1159 4600 1703 4600 
Q 2078 4600 2393 4439 
Q 2709 4278 2876 4000 
Q 3044 3722 3044 3409 
Q 3044 3113 2884 2869 
Q 2725 2625 2413 2481 
Q 2819 2388 3044 2092 
Q 3269 1797 3269 1353 
Q 3269 753 2831 336 
Q 2394 -81 1725 -81 
Q 1122 -81 723 278 
Q 325 638 269 1209 
z
" transform="scale(0.015625)"/>
       </defs>
       <use xlink:href="#ArialMT-33"/>
      </g>
     </g>
    </g>
    <g id="ytick_5">
     <g id="line2d_13">
      <path d="M 75.18 55.189102 
L 853.2 55.189102 
" clip-path="url(#pc5bc3f4c64)" style="fill: none; stroke: #cccccc; stroke-width: 0.8; stroke-linecap: round"/>
     </g>
     <g id="line2d_14"/>
     <g id="text_5">
      <!-- 4 -->
      <g style="fill: #262626" transform="translate(65.562969 59.125899) scale(0.11 -0.11)">
       <defs>
        <path id="ArialMT-34" d="M 2069 0 
L 2069 1097 
L 81 1097 
L 81 1613 
L 2172 4581 
L 2631 4581 
L 2631 1613 
L 3250 1613 
L 3250 1097 
L 2631 1097 
L 2631 0 
L 2069 0 
z
M 2069 1613 
L 2069 3678 
L 634 1613 
L 2069 1613 
z
" transform="scale(0.015625)"/>
       </defs>
       <use xlink:href="#ArialMT-34"/>
      </g>
     </g>
    </g>
    <g id="text_6">
     <!-- PV_feed[kW] -->
     <g style="fill: #262626" transform="translate(59.344062 193.351797) rotate(-90) scale(0.11 -0.11)">
      <defs>
       <path id="Arial-BoldMT-50" d="M 466 0 
L 466 4581 
L 1950 4581 
Q 2794 4581 3050 4513 
Q 3444 4409 3709 4064 
Q 3975 3719 3975 3172 
Q 3975 2750 3822 2462 
Q 3669 2175 3433 2011 
Q 3197 1847 2953 1794 
Q 2622 1728 1994 1728 
L 1391 1728 
L 1391 0 
L 466 0 
z
M 1391 3806 
L 1391 2506 
L 1897 2506 
Q 2444 2506 2628 2578 
Q 2813 2650 2917 2803 
Q 3022 2956 3022 3159 
Q 3022 3409 2875 3571 
Q 2728 3734 2503 3775 
Q 2338 3806 1838 3806 
L 1391 3806 
z
" transform="scale(0.015625)"/>
       <path id="Arial-BoldMT-56" d="M 1634 0 
L -3 4581 
L 1000 4581 
L 2159 1191 
L 3281 4581 
L 4263 4581 
L 2622 0 
L 1634 0 
z
" transform="scale(0.015625)"/>
       <path id="Arial-BoldMT-5f" d="M -59 -1266 
L -59 -697 
L 3591 -697 
L 3591 -1266 
L -59 -1266 
z
" transform="scale(0.015625)"/>
       <path id="Arial-BoldMT-66" d="M 75 3319 
L 563 3319 
L 563 3569 
Q 563 3988 652 4194 
Q 741 4400 980 4529 
Q 1219 4659 1584 4659 
Q 1959 4659 2319 4547 
L 2200 3934 
Q 1991 3984 1797 3984 
Q 1606 3984 1523 3895 
Q 1441 3806 1441 3553 
L 1441 3319 
L 2097 3319 
L 2097 2628 
L 1441 2628 
L 1441 0 
L 563 0 
L 563 2628 
L 75 2628 
L 75 3319 
z
" transform="scale(0.015625)"/>
       <path id="Arial-BoldMT-65" d="M 2381 1056 
L 3256 909 
Q 3088 428 2723 176 
Q 2359 -75 1813 -75 
Q 947 -75 531 491 
Q 203 944 203 1634 
Q 203 2459 634 2926 
Q 1066 3394 1725 3394 
Q 2466 3394 2894 2905 
Q 3322 2416 3303 1406 
L 1103 1406 
Q 1113 1016 1316 798 
Q 1519 581 1822 581 
Q 2028 581 2168 693 
Q 2309 806 2381 1056 
z
M 2431 1944 
Q 2422 2325 2234 2523 
Q 2047 2722 1778 2722 
Q 1491 2722 1303 2513 
Q 1116 2303 1119 1944 
L 2431 1944 
z
" transform="scale(0.015625)"/>
       <path id="Arial-BoldMT-64" d="M 3503 0 
L 2688 0 
L 2688 488 
Q 2484 203 2207 64 
Q 1931 -75 1650 -75 
Q 1078 -75 670 386 
Q 263 847 263 1672 
Q 263 2516 659 2955 
Q 1056 3394 1663 3394 
Q 2219 3394 2625 2931 
L 2625 4581 
L 3503 4581 
L 3503 0 
z
M 1159 1731 
Q 1159 1200 1306 963 
Q 1519 619 1900 619 
Q 2203 619 2415 876 
Q 2628 1134 2628 1647 
Q 2628 2219 2422 2470 
Q 2216 2722 1894 2722 
Q 1581 2722 1370 2473 
Q 1159 2225 1159 1731 
z
" transform="scale(0.015625)"/>
       <path id="Arial-BoldMT-5b" d="M 456 -1291 
L 456 4581 
L 2013 4581 
L 2013 3891 
L 1291 3891 
L 1291 -600 
L 2013 -600 
L 2013 -1291 
L 456 -1291 
z
" transform="scale(0.015625)"/>
       <path id="Arial-BoldMT-6b" d="M 428 0 
L 428 4581 
L 1306 4581 
L 1306 2150 
L 2334 3319 
L 3416 3319 
L 2281 2106 
L 3497 0 
L 2550 0 
L 1716 1491 
L 1306 1063 
L 1306 0 
L 428 0 
z
" transform="scale(0.015625)"/>
       <path id="Arial-BoldMT-57" d="M 1116 0 
L 22 4581 
L 969 4581 
L 1659 1434 
L 2497 4581 
L 3597 4581 
L 4400 1381 
L 5103 4581 
L 6034 4581 
L 4922 0 
L 3941 0 
L 3028 3425 
L 2119 0 
L 1116 0 
z
" transform="scale(0.015625)"/>
       <path id="Arial-BoldMT-5d" d="M 1675 4581 
L 1675 -1291 
L 119 -1291 
L 119 -600 
L 841 -600 
L 841 3897 
L 119 3897 
L 119 4581 
L 1675 4581 
z
" transform="scale(0.015625)"/>
      </defs>
      <use xlink:href="#Arial-BoldMT-50"/>
      <use xlink:href="#Arial-BoldMT-56" transform="translate(66.699219 0)"/>
      <use xlink:href="#Arial-BoldMT-5f" transform="translate(133.398438 0)"/>
      <use xlink:href="#Arial-BoldMT-66" transform="translate(189.013672 0)"/>
      <use xlink:href="#Arial-BoldMT-65" transform="translate(222.314453 0)"/>
      <use xlink:href="#Arial-BoldMT-65" transform="translate(277.929688 0)"/>
      <use xlink:href="#Arial-BoldMT-64" transform="translate(333.544922 0)"/>
      <use xlink:href="#Arial-BoldMT-5b" transform="translate(394.628906 0)"/>
      <use xlink:href="#Arial-BoldMT-6b" transform="translate(427.929688 0)"/>
      <use xlink:href="#Arial-BoldMT-57" transform="translate(483.544922 0)"/>
      <use xlink:href="#Arial-BoldMT-5d" transform="translate(577.929688 0)"/>
     </g>
    </g>
   </g>
   <g id="FillBetweenPolyCollection_1">
    <defs>
     <path id="mdaa0079f73" d="M 75.18 -589.20476 
L 75.18 -589.19558 
L 81.945391 -589.194471 
L 88.710783 -588.576307 
L 95.476174 -593.969305 
L 102.241565 -608.477388 
L 109.006957 -639.369294 
L 115.772348 -676.527656 
L 122.537739 -696.921146 
L 129.30313 -681.526123 
L 136.068522 -663.14702 
L 142.833913 -665.60829 
L 149.599304 -694.515243 
L 156.364696 -686.152048 
L 163.130087 -621.468775 
L 169.895478 -605.70185 
L 176.66087 -591.748286 
L 183.426261 -589.009602 
L 190.191652 -589.19558 
L 196.957043 -589.19558 
L 203.722435 -589.195581 
L 210.487826 -589.195582 
L 217.253217 -589.19559 
L 224.018609 -589.195585 
L 230.784 -589.19558 
L 237.549391 -589.19558 
L 244.314783 -589.19558 
L 251.080174 -589.103129 
L 257.845565 -596.864371 
L 264.610957 -612.495433 
L 271.376348 -657.606331 
L 278.141739 -683.085703 
L 284.90713 -759.155206 
L 291.672522 -769.483834 
L 298.437913 -728.754078 
L 305.203304 -720.414935 
L 311.968696 -717.078017 
L 318.734087 -686.745975 
L 325.499478 -643.108333 
L 332.26487 -607.972584 
L 339.030261 -589.133619 
L 345.795652 -589.103288 
L 352.561043 -589.195589 
L 359.326435 -589.195581 
L 366.091826 -589.19558 
L 372.857217 -589.19558 
L 379.622609 -589.195581 
L 386.388 -589.19558 
L 393.153391 -589.19558 
L 399.918783 -589.195584 
L 406.684174 -589.195587 
L 413.449565 -589.195583 
L 420.214957 -589.224673 
L 426.980348 -592.702277 
L 433.745739 -597.553351 
L 440.51113 -638.031107 
L 447.276522 -691.09047 
L 454.041913 -674.193307 
L 460.807304 -688.219227 
L 467.572696 -689.13814 
L 474.338087 -674.047121 
L 481.103478 -653.232247 
L 487.86887 -640.921613 
L 494.634261 -605.511598 
L 501.399652 -589.099554 
L 508.165043 -588.892405 
L 514.930435 -589.195583 
L 521.695826 -589.195581 
L 528.461217 -589.19558 
L 535.226609 -589.19558 
L 541.992 -589.19558 
L 548.757391 -589.19558 
L 555.522783 -589.195585 
L 562.288174 -589.195581 
L 569.053565 -589.195585 
L 575.818957 -589.19558 
L 582.584348 -590.386508 
L 589.349739 -609.222086 
L 596.11513 -628.201984 
L 602.880522 -706.381037 
L 609.645913 -773.178566 
L 616.411304 -777.156924 
L 623.176696 -783.486268 
L 629.942087 -706.221395 
L 636.707478 -687.034064 
L 643.47287 -658.054615 
L 650.238261 -628.101958 
L 657.003652 -603.564541 
L 663.769043 -588.93505 
L 670.534435 -589.195581 
L 677.299826 -589.19558 
L 684.065217 -589.19558 
L 690.830609 -589.19558 
L 697.596 -589.19558 
L 704.361391 -589.19515 
L 711.126783 -589.200593 
L 717.892174 -589.19558 
L 724.657565 -589.19558 
L 731.422957 -589.195584 
L 738.188348 -589.170738 
L 744.953739 -590.321504 
L 751.71913 -600.257099 
L 758.484522 -637.954649 
L 765.249913 -687.612606 
L 772.015304 -708.045803 
L 778.780696 -762.125568 
L 785.546087 -682.770202 
L 792.311478 -594.666036 
L 799.07687 -708.15078 
L 805.842261 -695.706057 
L 812.607652 -658.271089 
L 819.373043 -618.849175 
L 826.138435 -589.358099 
L 832.903826 -589.19558 
L 839.669217 -589.19558 
L 846.434609 -589.19558 
L 853.2 -589.195586 
L 853.2 -589.202082 
L 853.2 -589.202082 
L 846.434609 -589.202038 
L 839.669217 -589.202103 
L 832.903826 -589.433077 
L 826.138435 -596.783017 
L 819.373043 -621.008308 
L 812.607652 -689.992348 
L 805.842261 -719.581262 
L 799.07687 -781.035863 
L 792.311478 -772.181609 
L 785.546087 -773.63959 
L 778.780696 -817.835253 
L 772.015304 -773.858535 
L 765.249913 -730.388666 
L 758.484522 -650.970475 
L 751.71913 -632.064534 
L 744.953739 -604.235834 
L 738.188348 -590.006059 
L 731.422957 -589.202493 
L 724.657565 -589.201949 
L 717.892174 -589.202645 
L 711.126783 -591.24549 
L 704.361391 -591.762464 
L 697.596 -589.832818 
L 690.830609 -589.202376 
L 684.065217 -589.202644 
L 677.299826 -589.202319 
L 670.534435 -589.202291 
L 663.769043 -589.763088 
L 657.003652 -627.278883 
L 650.238261 -707.266833 
L 643.47287 -703.763137 
L 636.707478 -756.840451 
L 629.942087 -803.886153 
L 623.176696 -811.737553 
L 616.411304 -806.634889 
L 609.645913 -807.078212 
L 602.880522 -745.581482 
L 596.11513 -682.710118 
L 589.349739 -632.765636 
L 582.584348 -600.046603 
L 575.818957 -589.222705 
L 569.053565 -589.203161 
L 562.288174 -589.203323 
L 555.522783 -589.203182 
L 548.757391 -589.2035 
L 541.992 -589.20274 
L 535.226609 -589.203159 
L 528.461217 -589.202945 
L 521.695826 -589.2032 
L 514.930435 -589.203076 
L 508.165043 -590.072663 
L 501.399652 -602.167629 
L 494.634261 -629.452682 
L 487.86887 -686.201119 
L 481.103478 -676.983434 
L 474.338087 -755.749107 
L 467.572696 -787.810629 
L 460.807304 -772.200078 
L 454.041913 -765.260645 
L 447.276522 -760.234362 
L 440.51113 -679.572537 
L 433.745739 -619.65765 
L 426.980348 -613.321165 
L 420.214957 -599.011085 
L 413.449565 -589.366166 
L 406.684174 -589.203222 
L 399.918783 -589.203639 
L 393.153391 -589.20382 
L 386.388 -589.204221 
L 379.622609 -589.203709 
L 372.857217 -589.204205 
L 366.091826 -589.204041 
L 359.326435 -589.204059 
L 352.561043 -589.204203 
L 345.795652 -589.363836 
L 339.030261 -596.645393 
L 332.26487 -661.644972 
L 325.499478 -697.108018 
L 318.734087 -753.857444 
L 311.968696 -775.374623 
L 305.203304 -782.173272 
L 298.437913 -800.396928 
L 291.672522 -819.952443 
L 284.90713 -781.745059 
L 278.141739 -736.998324 
L 271.376348 -679.327422 
L 264.610957 -662.454592 
L 257.845565 -618.889882 
L 251.080174 -589.371844 
L 244.314783 -589.20401 
L 237.549391 -589.204302 
L 230.784 -589.20381 
L 224.018609 -589.204077 
L 217.253217 -589.204134 
L 210.487826 -589.203748 
L 203.722435 -589.2052 
L 196.957043 -589.204598 
L 190.191652 -589.204202 
L 183.426261 -589.196661 
L 176.66087 -599.804453 
L 169.895478 -645.279689 
L 163.130087 -655.113228 
L 156.364696 -730.195895 
L 149.599304 -764.432963 
L 142.833913 -749.547967 
L 136.068522 -709.988826 
L 129.30313 -750.063837 
L 122.537739 -746.439192 
L 115.772348 -695.932288 
L 109.006957 -664.867666 
L 102.241565 -622.036319 
L 95.476174 -596.734425 
L 88.710783 -589.204949 
L 81.945391 -589.205329 
L 75.18 -589.20476 
z
" style="stroke: #0000ff; stroke-opacity: 0.1"/>
    </defs>
    <g clip-path="url(#pc5bc3f4c64)">
     <use xlink:href="#mdaa0079f73" x="0" y="864" style="fill: #0000ff; fill-opacity: 0.1; stroke: #0000ff; stroke-opacity: 0.1"/>
    </g>
   </g>
   <g id="patch_3">
    <path d="M 623.176696 286.9925 
L 629.942087 286.9925 
L 629.942087 32.47875 
L 623.176696 32.47875 
z
" clip-path="url(#pc5bc3f4c64)" style="fill: #ff0000; opacity: 0.1; stroke: #ff0000; stroke-linejoin: miter"/>
   </g>
   <g id="line2d_15">
    <path d="M 75.18 274.803991 
L 81.945391 274.803658 
L 88.710783 274.806156 
L 95.476174 268.347575 
L 102.241565 249.991047 
L 109.006957 216.500435 
L 115.772348 181.821344 
L 122.537739 149.952967 
L 129.30313 156.779529 
L 136.068522 179.888785 
L 142.833913 138.34213 
L 149.599304 123.506626 
L 156.364696 150.740749 
L 163.130087 229.957408 
L 169.895478 241.143852 
L 176.66087 271.651455 
L 183.426261 274.81377 
L 190.191652 274.804234 
L 196.957043 274.804247 
L 203.722435 274.80425 
L 210.487826 274.803926 
L 217.253217 274.804166 
L 224.018609 274.804182 
L 230.784 274.804246 
L 237.549391 274.804257 
L 244.314783 274.804259 
L 251.080174 274.804093 
L 257.845565 266.975492 
L 264.610957 250.31197 
L 271.376348 203.472436 
L 278.141739 153.845235 
L 284.90713 89.301586 
L 291.672522 62.706714 
L 298.437913 96.653992 
L 305.203304 108.46027 
L 311.968696 116.473931 
L 318.734087 143.103713 
L 325.499478 200.389148 
L 332.26487 241.502062 
L 339.030261 273.114217 
L 345.795652 274.799587 
L 352.561043 274.803648 
L 359.326435 274.803827 
L 366.091826 274.804236 
L 372.857217 274.804246 
L 379.622609 274.80425 
L 386.388 274.804069 
L 393.153391 274.804219 
L 399.918783 274.804187 
L 406.684174 274.80425 
L 413.449565 274.797246 
L 420.214957 271.073548 
L 426.980348 264.62827 
L 433.745739 265.498937 
L 440.51113 214.628479 
L 447.276522 131.947233 
L 454.041913 152.298623 
L 460.807304 137.367921 
L 467.572696 140.556357 
L 474.338087 145.394118 
L 481.103478 199.046094 
L 487.86887 215.263928 
L 494.634261 247.654583 
L 501.399652 273.898406 
L 508.165043 274.499904 
L 514.930435 274.804 
L 521.695826 274.80358 
L 528.461217 274.804259 
L 535.226609 274.804195 
L 541.992 274.804254 
L 548.757391 274.804257 
L 555.522783 274.804131 
L 562.288174 274.804021 
L 569.053565 274.803794 
L 575.818957 274.804269 
L 582.584348 269.8191 
L 589.349739 254.241998 
L 596.11513 224.705813 
L 602.880522 124.138449 
L 609.645913 76.047979 
L 616.411304 61.265116 
L 623.176696 60.463238 
L 629.942087 113.742734 
L 636.707478 155.21768 
L 643.47287 180.162515 
L 650.238261 214.690843 
L 657.003652 239.906962 
L 663.769043 274.601642 
L 670.534435 274.804227 
L 677.299826 274.804175 
L 684.065217 274.804085 
L 690.830609 274.803967 
L 697.596 274.787858 
L 704.361391 274.112842 
L 711.126783 273.23349 
L 717.892174 274.804267 
L 724.657565 274.804271 
L 731.422957 274.803798 
L 738.188348 274.78467 
L 744.953739 271.447171 
L 751.71913 255.587687 
L 758.484522 221.805161 
L 765.249913 152.810094 
L 772.015304 101.7657 
L 778.780696 69.339474 
L 785.546087 120.542665 
L 792.311478 152.430705 
L 799.07687 96.229563 
L 805.842261 151.563447 
L 812.607652 192.462517 
L 819.373043 243.882698 
L 826.138435 273.687145 
L 832.903826 274.803174 
L 839.669217 274.804263 
L 846.434609 274.804268 
L 853.2 274.804241 
" clip-path="url(#pc5bc3f4c64)" style="fill: none; stroke: #0000ff; stroke-width: 1.3; stroke-linecap: round"/>
   </g>
   <g id="line2d_16">
    <path d="M 75.18 274.80442 
L 81.945391 274.80442 
L 88.710783 274.80442 
L 95.476174 269.023046 
L 102.241565 257.404297 
L 109.006957 230.354829 
L 115.772348 194.580044 
L 122.537739 138.892733 
L 129.30313 165.377794 
L 136.068522 157.518312 
L 142.833913 77.359818 
L 149.599304 52.806286 
L 156.364696 166.994165 
L 163.130087 140.825904 
L 169.895478 227.410884 
L 176.66087 273.490022 
L 183.426261 274.80442 
L 190.191652 274.80442 
L 196.957043 274.80442 
L 203.722435 274.80442 
L 210.487826 274.80442 
L 217.253217 274.80442 
L 224.018609 274.80442 
L 230.784 274.80442 
L 237.549391 274.80442 
L 244.314783 274.80442 
L 251.080174 274.80442 
L 257.845565 274.80442 
L 264.610957 235.946783 
L 271.376348 189.043543 
L 278.141739 146.827437 
L 284.90713 44.800202 
L 291.672522 44.687103 
L 298.437913 105.932324 
L 305.203304 131.538365 
L 311.968696 104.713453 
L 318.734087 148.870957 
L 325.499478 173.194451 
L 332.26487 248.840948 
L 339.030261 274.179614 
L 345.795652 274.80442 
L 352.561043 274.80442 
L 359.326435 274.80442 
L 366.091826 274.80442 
L 372.857217 274.80442 
L 379.622609 274.80442 
L 386.388 274.80442 
L 393.153391 274.80442 
L 399.918783 274.80442 
L 406.684174 274.80442 
L 413.449565 274.80442 
L 420.214957 271.745727 
L 426.980348 273.375822 
L 433.745739 267.837123 
L 440.51113 239.316232 
L 447.276522 76.670219 
L 454.041913 151.406966 
L 460.807304 152.105336 
L 467.572696 121.037466 
L 474.338087 182.104792 
L 481.103478 185.304037 
L 487.86887 221.857363 
L 494.634261 245.613702 
L 501.399652 274.340482 
L 508.165043 274.80442 
L 514.930435 274.80442 
L 521.695826 274.80442 
L 528.461217 274.80442 
L 535.226609 274.80442 
L 541.992 274.80442 
L 548.757391 274.80442 
L 555.522783 274.80442 
L 562.288174 274.80442 
L 569.053565 274.80442 
L 575.818957 274.80442 
L 582.584348 266.99984 
L 589.349739 243.774973 
L 596.11513 210.660824 
L 602.880522 151.020992 
L 609.645913 93.435107 
L 616.411304 86.338784 
L 623.176696 274.80442 
L 629.942087 274.80442 
L 636.707478 84.433076 
L 643.47287 171.330468 
L 650.238261 191.605902 
L 657.003652 250.680226 
L 663.769043 274.041805 
L 670.534435 274.80442 
L 677.299826 274.80442 
L 684.065217 274.80442 
L 690.830609 274.80442 
L 697.596 274.80442 
L 704.361391 274.80442 
L 711.126783 274.80442 
L 717.892174 274.80442 
L 724.657565 274.80442 
L 731.422957 274.80442 
L 738.188348 274.80442 
L 744.953739 268.797941 
L 751.71913 236.991055 
L 758.484522 209.583614 
L 765.249913 179.362346 
L 772.015304 98.366027 
L 778.780696 77.02106 
L 785.546087 112.473011 
L 792.311478 126.360932 
L 799.07687 90.453825 
L 805.842261 115.866068 
L 812.607652 178.862723 
L 819.373043 250.350804 
L 826.138435 274.266911 
L 832.903826 274.80442 
L 839.669217 274.80442 
L 846.434609 274.80442 
L 853.2 274.80442 
" clip-path="url(#pc5bc3f4c64)" style="fill: none; stroke: #000000; stroke-width: 1.3; stroke-linecap: round"/>
   </g>
   <g id="patch_4">
    <path d="M 75.18 286.9925 
L 75.18 32.47875 
" style="fill: none; stroke: #000000; stroke-width: 0.7; stroke-linejoin: miter; stroke-linecap: square"/>
   </g>
   <g id="patch_5">
    <path d="M 853.2 286.9925 
L 853.2 32.47875 
" style="fill: none; stroke: #000000; stroke-width: 0.7; stroke-linejoin: miter; stroke-linecap: square"/>
   </g>
   <g id="patch_6">
    <path d="M 75.18 286.9925 
L 853.2 286.9925 
" style="fill: none; stroke: #000000; stroke-width: 0.7; stroke-linejoin: miter; stroke-linecap: square"/>
   </g>
   <g id="patch_7">
    <path d="M 75.18 32.47875 
L 853.2 32.47875 
" style="fill: none; stroke: #000000; stroke-width: 0.7; stroke-linejoin: miter; stroke-linecap: square"/>
   </g>
   <g id="text_7">
    <!-- Technical failure PV inverter -->
    <g style="fill: #262626" transform="translate(626.755602 215.403957) rotate(-90) scale(0.05 -0.05)">
     <defs>
      <path id="ArialMT-54" d="M 1659 0 
L 1659 4041 
L 150 4041 
L 150 4581 
L 3781 4581 
L 3781 4041 
L 2266 4041 
L 2266 0 
L 1659 0 
z
" transform="scale(0.015625)"/>
      <path id="ArialMT-65" d="M 2694 1069 
L 3275 997 
Q 3138 488 2766 206 
Q 2394 -75 1816 -75 
Q 1088 -75 661 373 
Q 234 822 234 1631 
Q 234 2469 665 2931 
Q 1097 3394 1784 3394 
Q 2450 3394 2872 2941 
Q 3294 2488 3294 1666 
Q 3294 1616 3291 1516 
L 816 1516 
Q 847 969 1125 678 
Q 1403 388 1819 388 
Q 2128 388 2347 550 
Q 2566 713 2694 1069 
z
M 847 1978 
L 2700 1978 
Q 2663 2397 2488 2606 
Q 2219 2931 1791 2931 
Q 1403 2931 1139 2672 
Q 875 2413 847 1978 
z
" transform="scale(0.015625)"/>
      <path id="ArialMT-63" d="M 2588 1216 
L 3141 1144 
Q 3050 572 2676 248 
Q 2303 -75 1759 -75 
Q 1078 -75 664 370 
Q 250 816 250 1647 
Q 250 2184 428 2587 
Q 606 2991 970 3192 
Q 1334 3394 1763 3394 
Q 2303 3394 2647 3120 
Q 2991 2847 3088 2344 
L 2541 2259 
Q 2463 2594 2264 2762 
Q 2066 2931 1784 2931 
Q 1359 2931 1093 2626 
Q 828 2322 828 1663 
Q 828 994 1084 691 
Q 1341 388 1753 388 
Q 2084 388 2306 591 
Q 2528 794 2588 1216 
z
" transform="scale(0.015625)"/>
      <path id="ArialMT-68" d="M 422 0 
L 422 4581 
L 984 4581 
L 984 2938 
Q 1378 3394 1978 3394 
Q 2347 3394 2619 3248 
Q 2891 3103 3008 2847 
Q 3125 2591 3125 2103 
L 3125 0 
L 2563 0 
L 2563 2103 
Q 2563 2525 2380 2717 
Q 2197 2909 1863 2909 
Q 1613 2909 1392 2779 
Q 1172 2650 1078 2428 
Q 984 2206 984 1816 
L 984 0 
L 422 0 
z
" transform="scale(0.015625)"/>
      <path id="ArialMT-6e" d="M 422 0 
L 422 3319 
L 928 3319 
L 928 2847 
Q 1294 3394 1984 3394 
Q 2284 3394 2536 3286 
Q 2788 3178 2913 3003 
Q 3038 2828 3088 2588 
Q 3119 2431 3119 2041 
L 3119 0 
L 2556 0 
L 2556 2019 
Q 2556 2363 2490 2533 
Q 2425 2703 2258 2804 
Q 2091 2906 1866 2906 
Q 1506 2906 1245 2678 
Q 984 2450 984 1813 
L 984 0 
L 422 0 
z
" transform="scale(0.015625)"/>
      <path id="ArialMT-69" d="M 425 3934 
L 425 4581 
L 988 4581 
L 988 3934 
L 425 3934 
z
M 425 0 
L 425 3319 
L 988 3319 
L 988 0 
L 425 0 
z
" transform="scale(0.015625)"/>
      <path id="ArialMT-61" d="M 2588 409 
Q 2275 144 1986 34 
Q 1697 -75 1366 -75 
Q 819 -75 525 192 
Q 231 459 231 875 
Q 231 1119 342 1320 
Q 453 1522 633 1644 
Q 813 1766 1038 1828 
Q 1203 1872 1538 1913 
Q 2219 1994 2541 2106 
Q 2544 2222 2544 2253 
Q 2544 2597 2384 2738 
Q 2169 2928 1744 2928 
Q 1347 2928 1158 2789 
Q 969 2650 878 2297 
L 328 2372 
Q 403 2725 575 2942 
Q 747 3159 1072 3276 
Q 1397 3394 1825 3394 
Q 2250 3394 2515 3294 
Q 2781 3194 2906 3042 
Q 3031 2891 3081 2659 
Q 3109 2516 3109 2141 
L 3109 1391 
Q 3109 606 3145 398 
Q 3181 191 3288 0 
L 2700 0 
Q 2613 175 2588 409 
z
M 2541 1666 
Q 2234 1541 1622 1453 
Q 1275 1403 1131 1340 
Q 988 1278 909 1158 
Q 831 1038 831 891 
Q 831 666 1001 516 
Q 1172 366 1500 366 
Q 1825 366 2078 508 
Q 2331 650 2450 897 
Q 2541 1088 2541 1459 
L 2541 1666 
z
" transform="scale(0.015625)"/>
      <path id="ArialMT-6c" d="M 409 0 
L 409 4581 
L 972 4581 
L 972 0 
L 409 0 
z
" transform="scale(0.015625)"/>
      <path id="ArialMT-20" transform="scale(0.015625)"/>
      <path id="ArialMT-66" d="M 556 0 
L 556 2881 
L 59 2881 
L 59 3319 
L 556 3319 
L 556 3672 
Q 556 4006 616 4169 
Q 697 4388 901 4523 
Q 1106 4659 1475 4659 
Q 1713 4659 2000 4603 
L 1916 4113 
Q 1741 4144 1584 4144 
Q 1328 4144 1222 4034 
Q 1116 3925 1116 3625 
L 1116 3319 
L 1763 3319 
L 1763 2881 
L 1116 2881 
L 1116 0 
L 556 0 
z
" transform="scale(0.015625)"/>
      <path id="ArialMT-75" d="M 2597 0 
L 2597 488 
Q 2209 -75 1544 -75 
Q 1250 -75 995 37 
Q 741 150 617 320 
Q 494 491 444 738 
Q 409 903 409 1263 
L 409 3319 
L 972 3319 
L 972 1478 
Q 972 1038 1006 884 
Q 1059 663 1231 536 
Q 1403 409 1656 409 
Q 1909 409 2131 539 
Q 2353 669 2445 892 
Q 2538 1116 2538 1541 
L 2538 3319 
L 3100 3319 
L 3100 0 
L 2597 0 
z
" transform="scale(0.015625)"/>
      <path id="ArialMT-72" d="M 416 0 
L 416 3319 
L 922 3319 
L 922 2816 
Q 1116 3169 1280 3281 
Q 1444 3394 1641 3394 
Q 1925 3394 2219 3213 
L 2025 2691 
Q 1819 2813 1613 2813 
Q 1428 2813 1281 2702 
Q 1134 2591 1072 2394 
Q 978 2094 978 1738 
L 978 0 
L 416 0 
z
" transform="scale(0.015625)"/>
      <path id="ArialMT-50" d="M 494 0 
L 494 4581 
L 2222 4581 
Q 2678 4581 2919 4538 
Q 3256 4481 3484 4323 
Q 3713 4166 3852 3881 
Q 3991 3597 3991 3256 
Q 3991 2672 3619 2267 
Q 3247 1863 2275 1863 
L 1100 1863 
L 1100 0 
L 494 0 
z
M 1100 2403 
L 2284 2403 
Q 2872 2403 3119 2622 
Q 3366 2841 3366 3238 
Q 3366 3525 3220 3729 
Q 3075 3934 2838 4000 
Q 2684 4041 2272 4041 
L 1100 4041 
L 1100 2403 
z
" transform="scale(0.015625)"/>
      <path id="ArialMT-56" d="M 1803 0 
L 28 4581 
L 684 4581 
L 1875 1253 
Q 2019 853 2116 503 
Q 2222 878 2363 1253 
L 3600 4581 
L 4219 4581 
L 2425 0 
L 1803 0 
z
" transform="scale(0.015625)"/>
      <path id="ArialMT-76" d="M 1344 0 
L 81 3319 
L 675 3319 
L 1388 1331 
Q 1503 1009 1600 663 
Q 1675 925 1809 1294 
L 2547 3319 
L 3125 3319 
L 1869 0 
L 1344 0 
z
" transform="scale(0.015625)"/>
      <path id="ArialMT-74" d="M 1650 503 
L 1731 6 
Q 1494 -44 1306 -44 
Q 1000 -44 831 53 
Q 663 150 594 308 
Q 525 466 525 972 
L 525 2881 
L 113 2881 
L 113 3319 
L 525 3319 
L 525 4141 
L 1084 4478 
L 1084 3319 
L 1650 3319 
L 1650 2881 
L 1084 2881 
L 1084 941 
Q 1084 700 1114 631 
Q 1144 563 1211 522 
Q 1278 481 1403 481 
Q 1497 481 1650 503 
z
" transform="scale(0.015625)"/>
     </defs>
     <use xlink:href="#ArialMT-54"/>
     <use xlink:href="#ArialMT-65" transform="translate(49.958984 0)"/>
     <use xlink:href="#ArialMT-63" transform="translate(105.574219 0)"/>
     <use xlink:href="#ArialMT-68" transform="translate(155.574219 0)"/>
     <use xlink:href="#ArialMT-6e" transform="translate(211.189453 0)"/>
     <use xlink:href="#ArialMT-69" transform="translate(266.804688 0)"/>
     <use xlink:href="#ArialMT-63" transform="translate(289.021484 0)"/>
     <use xlink:href="#ArialMT-61" transform="translate(339.021484 0)"/>
     <use xlink:href="#ArialMT-6c" transform="translate(394.636719 0)"/>
     <use xlink:href="#ArialMT-20" transform="translate(416.853516 0)"/>
     <use xlink:href="#ArialMT-66" transform="translate(444.636719 0)"/>
     <use xlink:href="#ArialMT-61" transform="translate(472.419922 0)"/>
     <use xlink:href="#ArialMT-69" transform="translate(528.035156 0)"/>
     <use xlink:href="#ArialMT-6c" transform="translate(550.251953 0)"/>
     <use xlink:href="#ArialMT-75" transform="translate(572.46875 0)"/>
     <use xlink:href="#ArialMT-72" transform="translate(628.083984 0)"/>
     <use xlink:href="#ArialMT-65" transform="translate(661.384766 0)"/>
     <use xlink:href="#ArialMT-20" transform="translate(717 0)"/>
     <use xlink:href="#ArialMT-50" transform="translate(744.783203 0)"/>
     <use xlink:href="#ArialMT-56" transform="translate(811.482422 0)"/>
     <use xlink:href="#ArialMT-20" transform="translate(878.181641 0)"/>
     <use xlink:href="#ArialMT-69" transform="translate(905.964844 0)"/>
     <use xlink:href="#ArialMT-6e" transform="translate(928.181641 0)"/>
     <use xlink:href="#ArialMT-76" transform="translate(983.796875 0)"/>
     <use xlink:href="#ArialMT-65" transform="translate(1033.796875 0)"/>
     <use xlink:href="#ArialMT-72" transform="translate(1089.412109 0)"/>
     <use xlink:href="#ArialMT-74" transform="translate(1122.712891 0)"/>
     <use xlink:href="#ArialMT-65" transform="translate(1150.496094 0)"/>
     <use xlink:href="#ArialMT-72" transform="translate(1206.111328 0)"/>
    </g>
    <!--   -->
    <g style="fill: #262626" transform="translate(632.044039 215.403957) rotate(-90) scale(0.05 -0.05)">
     <use xlink:href="#ArialMT-20"/>
    </g>
   </g>
   <g id="legend_1">
    <g id="line2d_17">
     <path d="M 84.18 45.136562 
L 94.18 45.136562 
L 104.18 45.136562 
" style="fill: none; stroke: #0000ff; stroke-width: 1.3; stroke-linecap: round"/>
    </g>
    <g id="text_8">
     <!-- Median Prediction -->
     <g style="fill: #262626" transform="translate(112.18 48.636562) scale(0.1 -0.1)">
      <defs>
       <path id="ArialMT-4d" d="M 475 0 
L 475 4581 
L 1388 4581 
L 2472 1338 
Q 2622 884 2691 659 
Q 2769 909 2934 1394 
L 4031 4581 
L 4847 4581 
L 4847 0 
L 4263 0 
L 4263 3834 
L 2931 0 
L 2384 0 
L 1059 3900 
L 1059 0 
L 475 0 
z
" transform="scale(0.015625)"/>
       <path id="ArialMT-64" d="M 2575 0 
L 2575 419 
Q 2259 -75 1647 -75 
Q 1250 -75 917 144 
Q 584 363 401 755 
Q 219 1147 219 1656 
Q 219 2153 384 2558 
Q 550 2963 881 3178 
Q 1213 3394 1622 3394 
Q 1922 3394 2156 3267 
Q 2391 3141 2538 2938 
L 2538 4581 
L 3097 4581 
L 3097 0 
L 2575 0 
z
M 797 1656 
Q 797 1019 1065 703 
Q 1334 388 1700 388 
Q 2069 388 2326 689 
Q 2584 991 2584 1609 
Q 2584 2291 2321 2609 
Q 2059 2928 1675 2928 
Q 1300 2928 1048 2622 
Q 797 2316 797 1656 
z
" transform="scale(0.015625)"/>
       <path id="ArialMT-6f" d="M 213 1659 
Q 213 2581 725 3025 
Q 1153 3394 1769 3394 
Q 2453 3394 2887 2945 
Q 3322 2497 3322 1706 
Q 3322 1066 3130 698 
Q 2938 331 2570 128 
Q 2203 -75 1769 -75 
Q 1072 -75 642 372 
Q 213 819 213 1659 
z
M 791 1659 
Q 791 1022 1069 705 
Q 1347 388 1769 388 
Q 2188 388 2466 706 
Q 2744 1025 2744 1678 
Q 2744 2294 2464 2611 
Q 2184 2928 1769 2928 
Q 1347 2928 1069 2612 
Q 791 2297 791 1659 
z
" transform="scale(0.015625)"/>
      </defs>
      <use xlink:href="#ArialMT-4d"/>
      <use xlink:href="#ArialMT-65" transform="translate(83.300781 0)"/>
      <use xlink:href="#ArialMT-64" transform="translate(138.916016 0)"/>
      <use xlink:href="#ArialMT-69" transform="translate(194.53125 0)"/>
      <use xlink:href="#ArialMT-61" transform="translate(216.748047 0)"/>
      <use xlink:href="#ArialMT-6e" transform="translate(272.363281 0)"/>
      <use xlink:href="#ArialMT-20" transform="translate(327.978516 0)"/>
      <use xlink:href="#ArialMT-50" transform="translate(355.761719 0)"/>
      <use xlink:href="#ArialMT-72" transform="translate(422.460938 0)"/>
      <use xlink:href="#ArialMT-65" transform="translate(455.761719 0)"/>
      <use xlink:href="#ArialMT-64" transform="translate(511.376953 0)"/>
      <use xlink:href="#ArialMT-69" transform="translate(566.992188 0)"/>
      <use xlink:href="#ArialMT-63" transform="translate(589.208984 0)"/>
      <use xlink:href="#ArialMT-74" transform="translate(639.208984 0)"/>
      <use xlink:href="#ArialMT-69" transform="translate(666.992188 0)"/>
      <use xlink:href="#ArialMT-6f" transform="translate(689.208984 0)"/>
      <use xlink:href="#ArialMT-6e" transform="translate(744.824219 0)"/>
     </g>
    </g>
    <g id="patch_8">
     <path d="M 84.18 62.781875 
L 104.18 62.781875 
L 104.18 55.781875 
L 84.18 55.781875 
z
" style="fill: #0000ff; fill-opacity: 0.1; stroke: #0000ff; stroke-opacity: 0.1; stroke-linejoin: miter"/>
    </g>
    <g id="text_9">
     <!-- 80% Prediction Interval -->
     <g style="fill: #262626" transform="translate(112.18 62.781875) scale(0.1 -0.1)">
      <defs>
       <path id="ArialMT-38" d="M 1131 2484 
Q 781 2613 612 2850 
Q 444 3088 444 3419 
Q 444 3919 803 4259 
Q 1163 4600 1759 4600 
Q 2359 4600 2725 4251 
Q 3091 3903 3091 3403 
Q 3091 3084 2923 2848 
Q 2756 2613 2416 2484 
Q 2838 2347 3058 2040 
Q 3278 1734 3278 1309 
Q 3278 722 2862 322 
Q 2447 -78 1769 -78 
Q 1091 -78 675 323 
Q 259 725 259 1325 
Q 259 1772 486 2073 
Q 713 2375 1131 2484 
z
M 1019 3438 
Q 1019 3113 1228 2906 
Q 1438 2700 1772 2700 
Q 2097 2700 2305 2904 
Q 2513 3109 2513 3406 
Q 2513 3716 2298 3927 
Q 2084 4138 1766 4138 
Q 1444 4138 1231 3931 
Q 1019 3725 1019 3438 
z
M 838 1322 
Q 838 1081 952 856 
Q 1066 631 1291 507 
Q 1516 384 1775 384 
Q 2178 384 2440 643 
Q 2703 903 2703 1303 
Q 2703 1709 2433 1975 
Q 2163 2241 1756 2241 
Q 1359 2241 1098 1978 
Q 838 1716 838 1322 
z
" transform="scale(0.015625)"/>
       <path id="ArialMT-25" d="M 372 3481 
Q 372 3972 619 4315 
Q 866 4659 1334 4659 
Q 1766 4659 2048 4351 
Q 2331 4044 2331 3447 
Q 2331 2866 2045 2552 
Q 1759 2238 1341 2238 
Q 925 2238 648 2547 
Q 372 2856 372 3481 
z
M 1350 4272 
Q 1141 4272 1002 4090 
Q 863 3909 863 3425 
Q 863 2984 1003 2804 
Q 1144 2625 1350 2625 
Q 1563 2625 1702 2806 
Q 1841 2988 1841 3469 
Q 1841 3913 1700 4092 
Q 1559 4272 1350 4272 
z
M 1353 -169 
L 3859 4659 
L 4316 4659 
L 1819 -169 
L 1353 -169 
z
M 3334 1075 
Q 3334 1569 3581 1911 
Q 3828 2253 4300 2253 
Q 4731 2253 5014 1945 
Q 5297 1638 5297 1041 
Q 5297 459 5011 145 
Q 4725 -169 4303 -169 
Q 3888 -169 3611 142 
Q 3334 453 3334 1075 
z
M 4316 1866 
Q 4103 1866 3964 1684 
Q 3825 1503 3825 1019 
Q 3825 581 3965 400 
Q 4106 219 4313 219 
Q 4528 219 4667 400 
Q 4806 581 4806 1063 
Q 4806 1506 4665 1686 
Q 4525 1866 4316 1866 
z
" transform="scale(0.015625)"/>
       <path id="ArialMT-49" d="M 597 0 
L 597 4581 
L 1203 4581 
L 1203 0 
L 597 0 
z
" transform="scale(0.015625)"/>
      </defs>
      <use xlink:href="#ArialMT-38"/>
      <use xlink:href="#ArialMT-30" transform="translate(55.615234 0)"/>
      <use xlink:href="#ArialMT-25" transform="translate(111.230469 0)"/>
      <use xlink:href="#ArialMT-20" transform="translate(200.146484 0)"/>
      <use xlink:href="#ArialMT-50" transform="translate(227.929688 0)"/>
      <use xlink:href="#ArialMT-72" transform="translate(294.628906 0)"/>
      <use xlink:href="#ArialMT-65" transform="translate(327.929688 0)"/>
      <use xlink:href="#ArialMT-64" transform="translate(383.544922 0)"/>
      <use xlink:href="#ArialMT-69" transform="translate(439.160156 0)"/>
      <use xlink:href="#ArialMT-63" transform="translate(461.376953 0)"/>
      <use xlink:href="#ArialMT-74" transform="translate(511.376953 0)"/>
      <use xlink:href="#ArialMT-69" transform="translate(539.160156 0)"/>
      <use xlink:href="#ArialMT-6f" transform="translate(561.376953 0)"/>
      <use xlink:href="#ArialMT-6e" transform="translate(616.992188 0)"/>
      <use xlink:href="#ArialMT-20" transform="translate(672.607422 0)"/>
      <use xlink:href="#ArialMT-49" transform="translate(700.390625 0)"/>
      <use xlink:href="#ArialMT-6e" transform="translate(728.173828 0)"/>
      <use xlink:href="#ArialMT-74" transform="translate(783.789062 0)"/>
      <use xlink:href="#ArialMT-65" transform="translate(811.572266 0)"/>
      <use xlink:href="#ArialMT-72" transform="translate(867.1875 0)"/>
      <use xlink:href="#ArialMT-76" transform="translate(900.488281 0)"/>
      <use xlink:href="#ArialMT-61" transform="translate(950.488281 0)"/>
      <use xlink:href="#ArialMT-6c" transform="translate(1006.103516 0)"/>
     </g>
    </g>
    <g id="line2d_18">
     <path d="M 84.18 73.427187 
L 94.18 73.427187 
L 104.18 73.427187 
" style="fill: none; stroke: #000000; stroke-width: 1.3; stroke-linecap: round"/>
    </g>
    <g id="text_10">
     <!-- Ground truth -->
     <g style="fill: #262626" transform="translate(112.18 76.927187) scale(0.1 -0.1)">
      <defs>
       <path id="ArialMT-47" d="M 2638 1797 
L 2638 2334 
L 4578 2338 
L 4578 638 
Q 4131 281 3656 101 
Q 3181 -78 2681 -78 
Q 2006 -78 1454 211 
Q 903 500 622 1047 
Q 341 1594 341 2269 
Q 341 2938 620 3517 
Q 900 4097 1425 4378 
Q 1950 4659 2634 4659 
Q 3131 4659 3532 4498 
Q 3934 4338 4162 4050 
Q 4391 3763 4509 3300 
L 3963 3150 
Q 3859 3500 3706 3700 
Q 3553 3900 3268 4020 
Q 2984 4141 2638 4141 
Q 2222 4141 1919 4014 
Q 1616 3888 1430 3681 
Q 1244 3475 1141 3228 
Q 966 2803 966 2306 
Q 966 1694 1177 1281 
Q 1388 869 1791 669 
Q 2194 469 2647 469 
Q 3041 469 3416 620 
Q 3791 772 3984 944 
L 3984 1797 
L 2638 1797 
z
" transform="scale(0.015625)"/>
      </defs>
      <use xlink:href="#ArialMT-47"/>
      <use xlink:href="#ArialMT-72" transform="translate(77.783203 0)"/>
      <use xlink:href="#ArialMT-6f" transform="translate(111.083984 0)"/>
      <use xlink:href="#ArialMT-75" transform="translate(166.699219 0)"/>
      <use xlink:href="#ArialMT-6e" transform="translate(222.314453 0)"/>
      <use xlink:href="#ArialMT-64" transform="translate(277.929688 0)"/>
      <use xlink:href="#ArialMT-20" transform="translate(333.544922 0)"/>
      <use xlink:href="#ArialMT-74" transform="translate(361.328125 0)"/>
      <use xlink:href="#ArialMT-72" transform="translate(389.111328 0)"/>
      <use xlink:href="#ArialMT-75" transform="translate(422.412109 0)"/>
      <use xlink:href="#ArialMT-74" transform="translate(478.027344 0)"/>
      <use xlink:href="#ArialMT-68" transform="translate(505.810547 0)"/>
     </g>
    </g>
   </g>
  </g>
  <g id="axes_2">
   <g id="patch_9">
    <path d="M 75.18 556.26625 
L 853.2 556.26625 
L 853.2 301.7525 
L 75.18 301.7525 
z
" style="fill: #ffffff"/>
   </g>
   <g id="matplotlib.axis_3">
    <g id="xtick_5">
     <g id="line2d_19">
      <path d="M 224.018609 556.26625 
L 224.018609 301.7525 
" clip-path="url(#pf494f23c5e)" style="fill: none; stroke: #cccccc; stroke-width: 0.8; stroke-linecap: round"/>
     </g>
    </g>
    <g id="xtick_6">
     <g id="line2d_20">
      <path d="M 386.388 556.26625 
L 386.388 301.7525 
" clip-path="url(#pf494f23c5e)" style="fill: none; stroke: #cccccc; stroke-width: 0.8; stroke-linecap: round"/>
     </g>
    </g>
    <g id="xtick_7">
     <g id="line2d_21">
      <path d="M 548.757391 556.26625 
L 548.757391 301.7525 
" clip-path="url(#pf494f23c5e)" style="fill: none; stroke: #cccccc; stroke-width: 0.8; stroke-linecap: round"/>
     </g>
    </g>
    <g id="xtick_8">
     <g id="line2d_22">
      <path d="M 711.126783 556.26625 
L 711.126783 301.7525 
" clip-path="url(#pf494f23c5e)" style="fill: none; stroke: #cccccc; stroke-width: 0.8; stroke-linecap: round"/>
     </g>
    </g>
   </g>
   <g id="matplotlib.axis_4">
    <g id="ytick_6">
     <g id="line2d_23">
      <path d="M 75.18 544.697443 
L 853.2 544.697443 
" clip-path="url(#pf494f23c5e)" style="fill: none; stroke: #cccccc; stroke-width: 0.8; stroke-linecap: round"/>
     </g>
     <g id="line2d_24"/>
     <g id="text_11">
      <!-- 0 -->
      <g style="fill: #262626" transform="translate(65.562969 548.63424) scale(0.11 -0.11)">
       <use xlink:href="#ArialMT-30"/>
      </g>
     </g>
    </g>
    <g id="ytick_7">
     <g id="line2d_25">
      <path d="M 75.18 503.714002 
L 853.2 503.714002 
" clip-path="url(#pf494f23c5e)" style="fill: none; stroke: #cccccc; stroke-width: 0.8; stroke-linecap: round"/>
     </g>
     <g id="line2d_26"/>
     <g id="text_12">
      <!-- 1 -->
      <g style="fill: #262626" transform="translate(65.562969 507.650799) scale(0.11 -0.11)">
       <use xlink:href="#ArialMT-31"/>
      </g>
     </g>
    </g>
    <g id="ytick_8">
     <g id="line2d_27">
      <path d="M 75.18 462.73056 
L 853.2 462.73056 
" clip-path="url(#pf494f23c5e)" style="fill: none; stroke: #cccccc; stroke-width: 0.8; stroke-linecap: round"/>
     </g>
     <g id="line2d_28"/>
     <g id="text_13">
      <!-- 2 -->
      <g style="fill: #262626" transform="translate(65.562969 466.667357) scale(0.11 -0.11)">
       <use xlink:href="#ArialMT-32"/>
      </g>
     </g>
    </g>
    <g id="ytick_9">
     <g id="line2d_29">
      <path d="M 75.18 421.747119 
L 853.2 421.747119 
" clip-path="url(#pf494f23c5e)" style="fill: none; stroke: #cccccc; stroke-width: 0.8; stroke-linecap: round"/>
     </g>
     <g id="line2d_30"/>
     <g id="text_14">
      <!-- 3 -->
      <g style="fill: #262626" transform="translate(65.562969 425.683916) scale(0.11 -0.11)">
       <use xlink:href="#ArialMT-33"/>
      </g>
     </g>
    </g>
    <g id="ytick_10">
     <g id="line2d_31">
      <path d="M 75.18 380.763677 
L 853.2 380.763677 
" clip-path="url(#pf494f23c5e)" style="fill: none; stroke: #cccccc; stroke-width: 0.8; stroke-linecap: round"/>
     </g>
     <g id="line2d_32"/>
     <g id="text_15">
      <!-- 4 -->
      <g style="fill: #262626" transform="translate(65.562969 384.700474) scale(0.11 -0.11)">
       <use xlink:href="#ArialMT-34"/>
      </g>
     </g>
    </g>
    <g id="ytick_11">
     <g id="line2d_33">
      <path d="M 75.18 339.780236 
L 853.2 339.780236 
" clip-path="url(#pf494f23c5e)" style="fill: none; stroke: #cccccc; stroke-width: 0.8; stroke-linecap: round"/>
     </g>
     <g id="line2d_34"/>
     <g id="text_16">
      <!-- 5 -->
      <g style="fill: #262626" transform="translate(65.562969 343.717033) scale(0.11 -0.11)">
       <defs>
        <path id="ArialMT-35" d="M 266 1200 
L 856 1250 
Q 922 819 1161 601 
Q 1400 384 1738 384 
Q 2144 384 2425 690 
Q 2706 997 2706 1503 
Q 2706 1984 2436 2262 
Q 2166 2541 1728 2541 
Q 1456 2541 1237 2417 
Q 1019 2294 894 2097 
L 366 2166 
L 809 4519 
L 3088 4519 
L 3088 3981 
L 1259 3981 
L 1013 2750 
Q 1425 3038 1878 3038 
Q 2478 3038 2890 2622 
Q 3303 2206 3303 1553 
Q 3303 931 2941 478 
Q 2500 -78 1738 -78 
Q 1113 -78 717 272 
Q 322 622 266 1200 
z
" transform="scale(0.015625)"/>
       </defs>
       <use xlink:href="#ArialMT-35"/>
      </g>
     </g>
    </g>
    <g id="text_17">
     <!-- Anomaly Score -->
     <g style="fill: #262626" transform="translate(59.247812 469.049375) rotate(-90) scale(0.11 -0.11)">
      <defs>
       <path id="Arial-BoldMT-41" d="M 4597 0 
L 3591 0 
L 3191 1041 
L 1359 1041 
L 981 0 
L 0 0 
L 1784 4581 
L 2763 4581 
L 4597 0 
z
M 2894 1813 
L 2263 3513 
L 1644 1813 
L 2894 1813 
z
" transform="scale(0.015625)"/>
       <path id="Arial-BoldMT-6e" d="M 3478 0 
L 2600 0 
L 2600 1694 
Q 2600 2231 2544 2389 
Q 2488 2547 2361 2634 
Q 2234 2722 2056 2722 
Q 1828 2722 1647 2597 
Q 1466 2472 1398 2265 
Q 1331 2059 1331 1503 
L 1331 0 
L 453 0 
L 453 3319 
L 1269 3319 
L 1269 2831 
Q 1703 3394 2363 3394 
Q 2653 3394 2893 3289 
Q 3134 3184 3257 3021 
Q 3381 2859 3429 2653 
Q 3478 2447 3478 2063 
L 3478 0 
z
" transform="scale(0.015625)"/>
       <path id="Arial-BoldMT-6f" d="M 256 1706 
Q 256 2144 472 2553 
Q 688 2963 1083 3178 
Q 1478 3394 1966 3394 
Q 2719 3394 3200 2905 
Q 3681 2416 3681 1669 
Q 3681 916 3195 420 
Q 2709 -75 1972 -75 
Q 1516 -75 1102 131 
Q 688 338 472 736 
Q 256 1134 256 1706 
z
M 1156 1659 
Q 1156 1166 1390 903 
Q 1625 641 1969 641 
Q 2313 641 2545 903 
Q 2778 1166 2778 1666 
Q 2778 2153 2545 2415 
Q 2313 2678 1969 2678 
Q 1625 2678 1390 2415 
Q 1156 2153 1156 1659 
z
" transform="scale(0.015625)"/>
       <path id="Arial-BoldMT-6d" d="M 394 3319 
L 1203 3319 
L 1203 2866 
Q 1638 3394 2238 3394 
Q 2556 3394 2790 3262 
Q 3025 3131 3175 2866 
Q 3394 3131 3647 3262 
Q 3900 3394 4188 3394 
Q 4553 3394 4806 3245 
Q 5059 3097 5184 2809 
Q 5275 2597 5275 2122 
L 5275 0 
L 4397 0 
L 4397 1897 
Q 4397 2391 4306 2534 
Q 4184 2722 3931 2722 
Q 3747 2722 3584 2609 
Q 3422 2497 3350 2280 
Q 3278 2063 3278 1594 
L 3278 0 
L 2400 0 
L 2400 1819 
Q 2400 2303 2353 2443 
Q 2306 2584 2207 2653 
Q 2109 2722 1941 2722 
Q 1738 2722 1575 2612 
Q 1413 2503 1342 2297 
Q 1272 2091 1272 1613 
L 1272 0 
L 394 0 
L 394 3319 
z
" transform="scale(0.015625)"/>
       <path id="Arial-BoldMT-61" d="M 1116 2306 
L 319 2450 
Q 453 2931 781 3162 
Q 1109 3394 1756 3394 
Q 2344 3394 2631 3255 
Q 2919 3116 3036 2902 
Q 3153 2688 3153 2116 
L 3144 1091 
Q 3144 653 3186 445 
Q 3228 238 3344 0 
L 2475 0 
Q 2441 88 2391 259 
Q 2369 338 2359 363 
Q 2134 144 1878 34 
Q 1622 -75 1331 -75 
Q 819 -75 523 203 
Q 228 481 228 906 
Q 228 1188 362 1408 
Q 497 1628 739 1745 
Q 981 1863 1438 1950 
Q 2053 2066 2291 2166 
L 2291 2253 
Q 2291 2506 2166 2614 
Q 2041 2722 1694 2722 
Q 1459 2722 1328 2630 
Q 1197 2538 1116 2306 
z
M 2291 1594 
Q 2122 1538 1756 1459 
Q 1391 1381 1278 1306 
Q 1106 1184 1106 997 
Q 1106 813 1243 678 
Q 1381 544 1594 544 
Q 1831 544 2047 700 
Q 2206 819 2256 991 
Q 2291 1103 2291 1419 
L 2291 1594 
z
" transform="scale(0.015625)"/>
       <path id="Arial-BoldMT-6c" d="M 459 0 
L 459 4581 
L 1338 4581 
L 1338 0 
L 459 0 
z
" transform="scale(0.015625)"/>
       <path id="Arial-BoldMT-79" d="M 44 3319 
L 978 3319 
L 1772 963 
L 2547 3319 
L 3456 3319 
L 2284 125 
L 2075 -453 
Q 1959 -744 1854 -897 
Q 1750 -1050 1614 -1145 
Q 1478 -1241 1279 -1294 
Q 1081 -1347 831 -1347 
Q 578 -1347 334 -1294 
L 256 -606 
Q 463 -647 628 -647 
Q 934 -647 1081 -467 
Q 1228 -288 1306 -9 
L 44 3319 
z
" transform="scale(0.015625)"/>
       <path id="Arial-BoldMT-20" transform="scale(0.015625)"/>
       <path id="Arial-BoldMT-53" d="M 231 1491 
L 1131 1578 
Q 1213 1125 1461 912 
Q 1709 700 2131 700 
Q 2578 700 2804 889 
Q 3031 1078 3031 1331 
Q 3031 1494 2936 1608 
Q 2841 1722 2603 1806 
Q 2441 1863 1863 2006 
Q 1119 2191 819 2459 
Q 397 2838 397 3381 
Q 397 3731 595 4036 
Q 794 4341 1167 4500 
Q 1541 4659 2069 4659 
Q 2931 4659 3367 4281 
Q 3803 3903 3825 3272 
L 2900 3231 
Q 2841 3584 2645 3739 
Q 2450 3894 2059 3894 
Q 1656 3894 1428 3728 
Q 1281 3622 1281 3444 
Q 1281 3281 1419 3166 
Q 1594 3019 2269 2859 
Q 2944 2700 3267 2529 
Q 3591 2359 3773 2064 
Q 3956 1769 3956 1334 
Q 3956 941 3737 597 
Q 3519 253 3119 86 
Q 2719 -81 2122 -81 
Q 1253 -81 787 320 
Q 322 722 231 1491 
z
" transform="scale(0.015625)"/>
       <path id="Arial-BoldMT-63" d="M 3353 2338 
L 2488 2181 
Q 2444 2441 2289 2572 
Q 2134 2703 1888 2703 
Q 1559 2703 1364 2476 
Q 1169 2250 1169 1719 
Q 1169 1128 1367 884 
Q 1566 641 1900 641 
Q 2150 641 2309 783 
Q 2469 925 2534 1272 
L 3397 1125 
Q 3263 531 2881 228 
Q 2500 -75 1859 -75 
Q 1131 -75 698 384 
Q 266 844 266 1656 
Q 266 2478 700 2936 
Q 1134 3394 1875 3394 
Q 2481 3394 2839 3133 
Q 3197 2872 3353 2338 
z
" transform="scale(0.015625)"/>
       <path id="Arial-BoldMT-72" d="M 1300 0 
L 422 0 
L 422 3319 
L 1238 3319 
L 1238 2847 
Q 1447 3181 1614 3287 
Q 1781 3394 1994 3394 
Q 2294 3394 2572 3228 
L 2300 2463 
Q 2078 2606 1888 2606 
Q 1703 2606 1575 2504 
Q 1447 2403 1373 2137 
Q 1300 1872 1300 1025 
L 1300 0 
z
" transform="scale(0.015625)"/>
      </defs>
      <use xlink:href="#Arial-BoldMT-41"/>
      <use xlink:href="#Arial-BoldMT-6e" transform="translate(72.216797 0)"/>
      <use xlink:href="#Arial-BoldMT-6f" transform="translate(133.300781 0)"/>
      <use xlink:href="#Arial-BoldMT-6d" transform="translate(194.384766 0)"/>
      <use xlink:href="#Arial-BoldMT-61" transform="translate(283.300781 0)"/>
      <use xlink:href="#Arial-BoldMT-6c" transform="translate(338.916016 0)"/>
      <use xlink:href="#Arial-BoldMT-79" transform="translate(366.699219 0)"/>
      <use xlink:href="#Arial-BoldMT-20" transform="translate(422.314453 0)"/>
      <use xlink:href="#Arial-BoldMT-53" transform="translate(450.097656 0)"/>
      <use xlink:href="#Arial-BoldMT-63" transform="translate(516.796875 0)"/>
      <use xlink:href="#Arial-BoldMT-6f" transform="translate(572.412109 0)"/>
      <use xlink:href="#Arial-BoldMT-72" transform="translate(633.496094 0)"/>
      <use xlink:href="#Arial-BoldMT-65" transform="translate(672.412109 0)"/>
     </g>
    </g>
   </g>
   <g id="line2d_35">
    <path d="M 75.18 544.697443 
L 81.945391 544.697443 
L 88.710783 544.697443 
L 95.476174 544.697443 
L 102.241565 542.45659 
L 109.006957 537.880721 
L 115.772348 536.233054 
L 122.537739 544.697443 
L 129.30313 544.697443 
L 136.068522 544.697443 
L 142.833913 500.525211 
L 149.599304 489.011183 
L 156.364696 544.697443 
L 163.130087 463.645382 
L 169.895478 544.697443 
L 176.66087 543.222772 
L 183.426261 544.697443 
L 190.191652 544.697443 
L 196.957043 544.697443 
L 203.722435 544.697442 
L 210.487826 544.697442 
L 217.253217 544.697432 
L 224.018609 544.697438 
L 230.784 544.697443 
L 237.549391 544.697443 
L 244.314783 544.697443 
L 251.080174 544.697443 
L 257.845565 535.564863 
L 264.610957 544.697443 
L 271.376348 544.697443 
L 278.141739 544.697443 
L 284.90713 500.09349 
L 291.672522 544.697443 
L 298.437913 544.697443 
L 305.203304 544.697443 
L 311.968696 544.697443 
L 318.734087 544.697443 
L 325.499478 544.697443 
L 332.26487 544.697443 
L 339.030261 544.697443 
L 345.795652 544.697443 
L 352.561043 544.697433 
L 359.326435 544.697443 
L 366.091826 544.697443 
L 372.857217 544.697443 
L 379.622609 544.697443 
L 386.388 544.697443 
L 393.153391 544.697443 
L 399.918783 544.697439 
L 406.684174 544.697436 
L 413.449565 544.69744 
L 420.214957 544.697443 
L 426.980348 542.222685 
L 433.745739 543.041561 
L 440.51113 528.802417 
L 447.276522 512.430156 
L 454.041913 544.697443 
L 460.807304 544.697443 
L 467.572696 544.697443 
L 474.338087 544.697443 
L 481.103478 542.658033 
L 487.86887 544.697443 
L 494.634261 544.697443 
L 501.399652 544.697443 
L 508.165043 544.697443 
L 514.930435 544.69744 
L 521.695826 544.697443 
L 528.461217 544.697443 
L 535.226609 544.697443 
L 541.992 544.697443 
L 548.757391 544.697443 
L 555.522783 544.697438 
L 562.288174 544.697443 
L 569.053565 544.697437 
L 575.818957 544.697443 
L 582.584348 544.697443 
L 589.349739 544.697443 
L 596.11513 544.697443 
L 602.880522 544.697443 
L 609.645913 541.584882 
L 616.411304 544.697443 
L 623.176696 313.321307 
L 629.942087 405.334198 
L 636.707478 517.633031 
L 643.47287 544.697443 
L 650.238261 544.697443 
L 657.003652 544.697443 
L 663.769043 544.465095 
L 670.534435 544.697443 
L 677.299826 544.697443 
L 684.065217 544.697443 
L 690.830609 544.697443 
L 697.596 544.697443 
L 704.361391 544.697443 
L 711.126783 544.691474 
L 717.892174 544.697443 
L 724.657565 544.697443 
L 731.422957 544.697439 
L 738.188348 544.697443 
L 744.953739 544.697443 
L 751.71913 544.697443 
L 758.484522 540.59379 
L 765.249913 541.154644 
L 772.015304 544.697443 
L 778.780696 544.697443 
L 785.546087 544.697443 
L 792.311478 544.697443 
L 799.07687 544.697443 
L 805.842261 510.694751 
L 812.607652 544.697443 
L 819.373043 538.504913 
L 826.138435 544.697443 
L 832.903826 544.697443 
L 839.669217 544.697443 
L 846.434609 544.697443 
L 853.2 544.697437 
" clip-path="url(#pf494f23c5e)" style="fill: none; stroke: #000000; stroke-width: 1.3; stroke-linecap: round"/>
   </g>
   <g id="LineCollection_1">
    <path d="M 75.18 421.747119 
L 853.2 421.747119 
" clip-path="url(#pf494f23c5e)" style="fill: none; stroke-dasharray: 4.81,2.08; stroke-dashoffset: 0; stroke: #000000; stroke-width: 1.3"/>
   </g>
   <g id="patch_10">
    <path d="M 75.18 556.26625 
L 75.18 301.7525 
" style="fill: none; stroke: #000000; stroke-width: 0.7; stroke-linejoin: miter; stroke-linecap: square"/>
   </g>
   <g id="patch_11">
    <path d="M 853.2 556.26625 
L 853.2 301.7525 
" style="fill: none; stroke: #000000; stroke-width: 0.7; stroke-linejoin: miter; stroke-linecap: square"/>
   </g>
   <g id="patch_12">
    <path d="M 75.18 556.26625 
L 853.2 556.26625 
" style="fill: none; stroke: #000000; stroke-width: 0.7; stroke-linejoin: miter; stroke-linecap: square"/>
   </g>
   <g id="patch_13">
    <path d="M 75.18 301.7525 
L 853.2 301.7525 
" style="fill: none; stroke: #000000; stroke-width: 0.7; stroke-linejoin: miter; stroke-linecap: square"/>
   </g>
   <g id="legend_2">
    <g id="line2d_36">
     <path d="M 748.395313 314.532187 
L 758.395313 314.532187 
L 768.395313 314.532187 
" style="fill: none; stroke: #000000; stroke-width: 1.3; stroke-linecap: round"/>
    </g>
    <g id="text_18">
     <!-- Anomaly Score -->
     <g style="fill: #262626" transform="translate(776.395313 318.032187) scale(0.1 -0.1)">
      <defs>
       <path id="ArialMT-41" d="M -9 0 
L 1750 4581 
L 2403 4581 
L 4278 0 
L 3588 0 
L 3053 1388 
L 1138 1388 
L 634 0 
L -9 0 
z
M 1313 1881 
L 2866 1881 
L 2388 3150 
Q 2169 3728 2063 4100 
Q 1975 3659 1816 3225 
L 1313 1881 
z
" transform="scale(0.015625)"/>
       <path id="ArialMT-6d" d="M 422 0 
L 422 3319 
L 925 3319 
L 925 2853 
Q 1081 3097 1340 3245 
Q 1600 3394 1931 3394 
Q 2300 3394 2536 3241 
Q 2772 3088 2869 2813 
Q 3263 3394 3894 3394 
Q 4388 3394 4653 3120 
Q 4919 2847 4919 2278 
L 4919 0 
L 4359 0 
L 4359 2091 
Q 4359 2428 4304 2576 
Q 4250 2725 4106 2815 
Q 3963 2906 3769 2906 
Q 3419 2906 3187 2673 
Q 2956 2441 2956 1928 
L 2956 0 
L 2394 0 
L 2394 2156 
Q 2394 2531 2256 2718 
Q 2119 2906 1806 2906 
Q 1569 2906 1367 2781 
Q 1166 2656 1075 2415 
Q 984 2175 984 1722 
L 984 0 
L 422 0 
z
" transform="scale(0.015625)"/>
       <path id="ArialMT-79" d="M 397 -1278 
L 334 -750 
Q 519 -800 656 -800 
Q 844 -800 956 -737 
Q 1069 -675 1141 -563 
Q 1194 -478 1313 -144 
Q 1328 -97 1363 -6 
L 103 3319 
L 709 3319 
L 1400 1397 
Q 1534 1031 1641 628 
Q 1738 1016 1872 1384 
L 2581 3319 
L 3144 3319 
L 1881 -56 
Q 1678 -603 1566 -809 
Q 1416 -1088 1222 -1217 
Q 1028 -1347 759 -1347 
Q 597 -1347 397 -1278 
z
" transform="scale(0.015625)"/>
       <path id="ArialMT-53" d="M 288 1472 
L 859 1522 
Q 900 1178 1048 958 
Q 1197 738 1509 602 
Q 1822 466 2213 466 
Q 2559 466 2825 569 
Q 3091 672 3220 851 
Q 3350 1031 3350 1244 
Q 3350 1459 3225 1620 
Q 3100 1781 2813 1891 
Q 2628 1963 1997 2114 
Q 1366 2266 1113 2400 
Q 784 2572 623 2826 
Q 463 3081 463 3397 
Q 463 3744 659 4045 
Q 856 4347 1234 4503 
Q 1613 4659 2075 4659 
Q 2584 4659 2973 4495 
Q 3363 4331 3572 4012 
Q 3781 3694 3797 3291 
L 3216 3247 
Q 3169 3681 2898 3903 
Q 2628 4125 2100 4125 
Q 1550 4125 1298 3923 
Q 1047 3722 1047 3438 
Q 1047 3191 1225 3031 
Q 1400 2872 2139 2705 
Q 2878 2538 3153 2413 
Q 3553 2228 3743 1945 
Q 3934 1663 3934 1294 
Q 3934 928 3725 604 
Q 3516 281 3123 101 
Q 2731 -78 2241 -78 
Q 1619 -78 1198 103 
Q 778 284 539 648 
Q 300 1013 288 1472 
z
" transform="scale(0.015625)"/>
      </defs>
      <use xlink:href="#ArialMT-41"/>
      <use xlink:href="#ArialMT-6e" transform="translate(66.699219 0)"/>
      <use xlink:href="#ArialMT-6f" transform="translate(122.314453 0)"/>
      <use xlink:href="#ArialMT-6d" transform="translate(177.929688 0)"/>
      <use xlink:href="#ArialMT-61" transform="translate(261.230469 0)"/>
      <use xlink:href="#ArialMT-6c" transform="translate(316.845703 0)"/>
      <use xlink:href="#ArialMT-79" transform="translate(339.0625 0)"/>
      <use xlink:href="#ArialMT-20" transform="translate(389.0625 0)"/>
      <use xlink:href="#ArialMT-53" transform="translate(416.845703 0)"/>
      <use xlink:href="#ArialMT-63" transform="translate(483.544922 0)"/>
      <use xlink:href="#ArialMT-6f" transform="translate(533.544922 0)"/>
      <use xlink:href="#ArialMT-72" transform="translate(589.160156 0)"/>
      <use xlink:href="#ArialMT-65" transform="translate(622.460938 0)"/>
     </g>
    </g>
    <g id="line2d_37">
     <path d="M 748.395313 328.794688 
L 768.395313 328.794688 
" style="fill: none; stroke-dasharray: 4.81,2.08; stroke-dashoffset: 0; stroke: #000000; stroke-width: 1.3"/>
    </g>
    <g id="text_19">
     <!-- Threshold -->
     <g style="fill: #262626" transform="translate(776.395313 332.294688) scale(0.1 -0.1)">
      <defs>
       <path id="ArialMT-73" d="M 197 991 
L 753 1078 
Q 800 744 1014 566 
Q 1228 388 1613 388 
Q 2000 388 2187 545 
Q 2375 703 2375 916 
Q 2375 1106 2209 1216 
Q 2094 1291 1634 1406 
Q 1016 1563 777 1677 
Q 538 1791 414 1992 
Q 291 2194 291 2438 
Q 291 2659 392 2848 
Q 494 3038 669 3163 
Q 800 3259 1026 3326 
Q 1253 3394 1513 3394 
Q 1903 3394 2198 3281 
Q 2494 3169 2634 2976 
Q 2775 2784 2828 2463 
L 2278 2388 
Q 2241 2644 2061 2787 
Q 1881 2931 1553 2931 
Q 1166 2931 1000 2803 
Q 834 2675 834 2503 
Q 834 2394 903 2306 
Q 972 2216 1119 2156 
Q 1203 2125 1616 2013 
Q 2213 1853 2448 1751 
Q 2684 1650 2818 1456 
Q 2953 1263 2953 975 
Q 2953 694 2789 445 
Q 2625 197 2315 61 
Q 2006 -75 1616 -75 
Q 969 -75 630 194 
Q 291 463 197 991 
z
" transform="scale(0.015625)"/>
      </defs>
      <use xlink:href="#ArialMT-54"/>
      <use xlink:href="#ArialMT-68" transform="translate(61.083984 0)"/>
      <use xlink:href="#ArialMT-72" transform="translate(116.699219 0)"/>
      <use xlink:href="#ArialMT-65" transform="translate(150 0)"/>
      <use xlink:href="#ArialMT-73" transform="translate(205.615234 0)"/>
      <use xlink:href="#ArialMT-68" transform="translate(255.615234 0)"/>
      <use xlink:href="#ArialMT-6f" transform="translate(311.230469 0)"/>
      <use xlink:href="#ArialMT-6c" transform="translate(366.845703 0)"/>
      <use xlink:href="#ArialMT-64" transform="translate(389.0625 0)"/>
     </g>
    </g>
   </g>
  </g>
  <g id="axes_3">
   <g id="patch_14">
    <path d="M 75.18 825.54 
L 853.2 825.54 
L 853.2 571.02625 
L 75.18 571.02625 
z
" style="fill: #ffffff"/>
   </g>
   <g id="matplotlib.axis_5">
    <g id="xtick_9">
     <g id="line2d_38">
      <path d="M 224.018609 825.54 
L 224.018609 571.02625 
" clip-path="url(#p39236e0b05)" style="fill: none; stroke: #cccccc; stroke-width: 0.8; stroke-linecap: round"/>
     </g>
     <g id="text_20">
      <!-- 2022-09-17 -->
      <g style="fill: #262626" transform="translate(195.887827 836.913594) scale(0.11 -0.11)">
       <defs>
        <path id="ArialMT-2d" d="M 203 1375 
L 203 1941 
L 1931 1941 
L 1931 1375 
L 203 1375 
z
" transform="scale(0.015625)"/>
        <path id="ArialMT-39" d="M 350 1059 
L 891 1109 
Q 959 728 1153 556 
Q 1347 384 1650 384 
Q 1909 384 2104 503 
Q 2300 622 2425 820 
Q 2550 1019 2634 1356 
Q 2719 1694 2719 2044 
Q 2719 2081 2716 2156 
Q 2547 1888 2255 1720 
Q 1963 1553 1622 1553 
Q 1053 1553 659 1965 
Q 266 2378 266 3053 
Q 266 3750 677 4175 
Q 1088 4600 1706 4600 
Q 2153 4600 2523 4359 
Q 2894 4119 3086 3673 
Q 3278 3228 3278 2384 
Q 3278 1506 3087 986 
Q 2897 466 2520 194 
Q 2144 -78 1638 -78 
Q 1100 -78 759 220 
Q 419 519 350 1059 
z
M 2653 3081 
Q 2653 3566 2395 3850 
Q 2138 4134 1775 4134 
Q 1400 4134 1122 3828 
Q 844 3522 844 3034 
Q 844 2597 1108 2323 
Q 1372 2050 1759 2050 
Q 2150 2050 2401 2323 
Q 2653 2597 2653 3081 
z
" transform="scale(0.015625)"/>
        <path id="ArialMT-37" d="M 303 3981 
L 303 4522 
L 3269 4522 
L 3269 4084 
Q 2831 3619 2401 2847 
Q 1972 2075 1738 1259 
Q 1569 684 1522 0 
L 944 0 
Q 953 541 1156 1306 
Q 1359 2072 1739 2783 
Q 2119 3494 2547 3981 
L 303 3981 
z
" transform="scale(0.015625)"/>
       </defs>
       <use xlink:href="#ArialMT-32"/>
       <use xlink:href="#ArialMT-30" transform="translate(55.615234 0)"/>
       <use xlink:href="#ArialMT-32" transform="translate(111.230469 0)"/>
       <use xlink:href="#ArialMT-32" transform="translate(166.845703 0)"/>
       <use xlink:href="#ArialMT-2d" transform="translate(222.460938 0)"/>
       <use xlink:href="#ArialMT-30" transform="translate(255.761719 0)"/>
       <use xlink:href="#ArialMT-39" transform="translate(311.376953 0)"/>
       <use xlink:href="#ArialMT-2d" transform="translate(366.992188 0)"/>
       <use xlink:href="#ArialMT-31" transform="translate(400.292969 0)"/>
       <use xlink:href="#ArialMT-37" transform="translate(455.908203 0)"/>
      </g>
     </g>
    </g>
    <g id="xtick_10">
     <g id="line2d_39">
      <path d="M 386.388 825.54 
L 386.388 571.02625 
" clip-path="url(#p39236e0b05)" style="fill: none; stroke: #cccccc; stroke-width: 0.8; stroke-linecap: round"/>
     </g>
     <g id="text_21">
      <!-- 2022-09-18 -->
      <g style="fill: #262626" transform="translate(358.257219 836.913594) scale(0.11 -0.11)">
       <use xlink:href="#ArialMT-32"/>
       <use xlink:href="#ArialMT-30" transform="translate(55.615234 0)"/>
       <use xlink:href="#ArialMT-32" transform="translate(111.230469 0)"/>
       <use xlink:href="#ArialMT-32" transform="translate(166.845703 0)"/>
       <use xlink:href="#ArialMT-2d" transform="translate(222.460938 0)"/>
       <use xlink:href="#ArialMT-30" transform="translate(255.761719 0)"/>
       <use xlink:href="#ArialMT-39" transform="translate(311.376953 0)"/>
       <use xlink:href="#ArialMT-2d" transform="translate(366.992188 0)"/>
       <use xlink:href="#ArialMT-31" transform="translate(400.292969 0)"/>
       <use xlink:href="#ArialMT-38" transform="translate(455.908203 0)"/>
      </g>
     </g>
    </g>
    <g id="xtick_11">
     <g id="line2d_40">
      <path d="M 548.757391 825.54 
L 548.757391 571.02625 
" clip-path="url(#p39236e0b05)" style="fill: none; stroke: #cccccc; stroke-width: 0.8; stroke-linecap: round"/>
     </g>
     <g id="text_22">
      <!-- 2022-09-19 -->
      <g style="fill: #262626" transform="translate(520.62661 836.913594) scale(0.11 -0.11)">
       <use xlink:href="#ArialMT-32"/>
       <use xlink:href="#ArialMT-30" transform="translate(55.615234 0)"/>
       <use xlink:href="#ArialMT-32" transform="translate(111.230469 0)"/>
       <use xlink:href="#ArialMT-32" transform="translate(166.845703 0)"/>
       <use xlink:href="#ArialMT-2d" transform="translate(222.460938 0)"/>
       <use xlink:href="#ArialMT-30" transform="translate(255.761719 0)"/>
       <use xlink:href="#ArialMT-39" transform="translate(311.376953 0)"/>
       <use xlink:href="#ArialMT-2d" transform="translate(366.992188 0)"/>
       <use xlink:href="#ArialMT-31" transform="translate(400.292969 0)"/>
       <use xlink:href="#ArialMT-39" transform="translate(455.908203 0)"/>
      </g>
     </g>
    </g>
    <g id="xtick_12">
     <g id="line2d_41">
      <path d="M 711.126783 825.54 
L 711.126783 571.02625 
" clip-path="url(#p39236e0b05)" style="fill: none; stroke: #cccccc; stroke-width: 0.8; stroke-linecap: round"/>
     </g>
     <g id="text_23">
      <!-- 2022-09-20 -->
      <g style="fill: #262626" transform="translate(682.996001 836.913594) scale(0.11 -0.11)">
       <use xlink:href="#ArialMT-32"/>
       <use xlink:href="#ArialMT-30" transform="translate(55.615234 0)"/>
       <use xlink:href="#ArialMT-32" transform="translate(111.230469 0)"/>
       <use xlink:href="#ArialMT-32" transform="translate(166.845703 0)"/>
       <use xlink:href="#ArialMT-2d" transform="translate(222.460938 0)"/>
       <use xlink:href="#ArialMT-30" transform="translate(255.761719 0)"/>
       <use xlink:href="#ArialMT-39" transform="translate(311.376953 0)"/>
       <use xlink:href="#ArialMT-2d" transform="translate(366.992188 0)"/>
       <use xlink:href="#ArialMT-32" transform="translate(400.292969 0)"/>
       <use xlink:href="#ArialMT-30" transform="translate(455.908203 0)"/>
      </g>
     </g>
    </g>
    <g id="text_24">
     <!-- Time -->
     <g style="fill: #262626" transform="translate(451.449766 850.973438) scale(0.11 -0.11)">
      <defs>
       <path id="Arial-BoldMT-54" d="M 1497 0 
L 1497 3806 
L 138 3806 
L 138 4581 
L 3778 4581 
L 3778 3806 
L 2422 3806 
L 2422 0 
L 1497 0 
z
" transform="scale(0.015625)"/>
       <path id="Arial-BoldMT-69" d="M 459 3769 
L 459 4581 
L 1338 4581 
L 1338 3769 
L 459 3769 
z
M 459 0 
L 459 3319 
L 1338 3319 
L 1338 0 
L 459 0 
z
" transform="scale(0.015625)"/>
      </defs>
      <use xlink:href="#Arial-BoldMT-54"/>
      <use xlink:href="#Arial-BoldMT-69" transform="translate(59.333984 0)"/>
      <use xlink:href="#Arial-BoldMT-6d" transform="translate(87.117188 0)"/>
      <use xlink:href="#Arial-BoldMT-65" transform="translate(176.033203 0)"/>
     </g>
    </g>
   </g>
   <g id="matplotlib.axis_6">
    <g id="ytick_12">
     <g id="line2d_42">
      <path d="M 75.18 819.332348 
L 853.2 819.332348 
" clip-path="url(#p39236e0b05)" style="fill: none; stroke: #cccccc; stroke-width: 0.8; stroke-linecap: round"/>
     </g>
     <g id="line2d_43"/>
     <g id="text_25">
      <!-- Low|zero -->
      <g style="fill: #262626" transform="translate(27.246875 823.336176) scale(0.11 -0.11)">
       <defs>
        <path id="ArialMT-4c" d="M 469 0 
L 469 4581 
L 1075 4581 
L 1075 541 
L 3331 541 
L 3331 0 
L 469 0 
z
" transform="scale(0.015625)"/>
        <path id="ArialMT-77" d="M 1034 0 
L 19 3319 
L 600 3319 
L 1128 1403 
L 1325 691 
Q 1338 744 1497 1375 
L 2025 3319 
L 2603 3319 
L 3100 1394 
L 3266 759 
L 3456 1400 
L 4025 3319 
L 4572 3319 
L 3534 0 
L 2950 0 
L 2422 1988 
L 2294 2553 
L 1622 0 
L 1034 0 
z
" transform="scale(0.015625)"/>
        <path id="ArialMT-7c" d="M 588 -1347 
L 588 4659 
L 1078 4659 
L 1078 -1347 
L 588 -1347 
z
" transform="scale(0.015625)"/>
        <path id="ArialMT-7a" d="M 125 0 
L 125 456 
L 2238 2881 
Q 1878 2863 1603 2863 
L 250 2863 
L 250 3319 
L 2963 3319 
L 2963 2947 
L 1166 841 
L 819 456 
Q 1197 484 1528 484 
L 3063 484 
L 3063 0 
L 125 0 
z
" transform="scale(0.015625)"/>
       </defs>
       <use xlink:href="#ArialMT-4c"/>
       <use xlink:href="#ArialMT-6f" transform="translate(55.615234 0)"/>
       <use xlink:href="#ArialMT-77" transform="translate(111.230469 0)"/>
       <use xlink:href="#ArialMT-7c" transform="translate(183.447266 0)"/>
       <use xlink:href="#ArialMT-7a" transform="translate(209.423828 0)"/>
       <use xlink:href="#ArialMT-65" transform="translate(259.423828 0)"/>
       <use xlink:href="#ArialMT-72" transform="translate(315.039062 0)"/>
       <use xlink:href="#ArialMT-6f" transform="translate(348.339844 0)"/>
      </g>
     </g>
    </g>
    <g id="ytick_13">
     <g id="line2d_44">
      <path d="M 75.18 757.255823 
L 853.2 757.255823 
" clip-path="url(#p39236e0b05)" style="fill: none; stroke: #cccccc; stroke-width: 0.8; stroke-linecap: round"/>
     </g>
     <g id="line2d_45"/>
     <g id="text_26">
      <!-- Low -->
      <g style="fill: #262626" transform="translate(51.501875 761.19262) scale(0.11 -0.11)">
       <use xlink:href="#ArialMT-4c"/>
       <use xlink:href="#ArialMT-6f" transform="translate(55.615234 0)"/>
       <use xlink:href="#ArialMT-77" transform="translate(111.230469 0)"/>
      </g>
     </g>
    </g>
    <g id="ytick_14">
     <g id="line2d_46">
      <path d="M 75.18 695.179299 
L 853.2 695.179299 
" clip-path="url(#p39236e0b05)" style="fill: none; stroke: #cccccc; stroke-width: 0.8; stroke-linecap: round"/>
     </g>
     <g id="line2d_47"/>
     <g id="text_27">
      <!-- Normal -->
      <g style="fill: #262626" transform="translate(36.2325 699.116096) scale(0.11 -0.11)">
       <defs>
        <path id="ArialMT-4e" d="M 488 0 
L 488 4581 
L 1109 4581 
L 3516 984 
L 3516 4581 
L 4097 4581 
L 4097 0 
L 3475 0 
L 1069 3600 
L 1069 0 
L 488 0 
z
" transform="scale(0.015625)"/>
       </defs>
       <use xlink:href="#ArialMT-4e"/>
       <use xlink:href="#ArialMT-6f" transform="translate(72.216797 0)"/>
       <use xlink:href="#ArialMT-72" transform="translate(127.832031 0)"/>
       <use xlink:href="#ArialMT-6d" transform="translate(161.132812 0)"/>
       <use xlink:href="#ArialMT-61" transform="translate(244.433594 0)"/>
       <use xlink:href="#ArialMT-6c" transform="translate(300.048828 0)"/>
      </g>
     </g>
    </g>
    <g id="ytick_15">
     <g id="line2d_48">
      <path d="M 75.18 633.102774 
L 853.2 633.102774 
" clip-path="url(#p39236e0b05)" style="fill: none; stroke: #cccccc; stroke-width: 0.8; stroke-linecap: round"/>
     </g>
     <g id="line2d_49"/>
     <g id="text_28">
      <!-- High -->
      <g style="fill: #262626" transform="translate(49.057812 637.039571) scale(0.11 -0.11)">
       <defs>
        <path id="ArialMT-48" d="M 513 0 
L 513 4581 
L 1119 4581 
L 1119 2700 
L 3500 2700 
L 3500 4581 
L 4106 4581 
L 4106 0 
L 3500 0 
L 3500 2159 
L 1119 2159 
L 1119 0 
L 513 0 
z
" transform="scale(0.015625)"/>
        <path id="ArialMT-67" d="M 319 -275 
L 866 -356 
Q 900 -609 1056 -725 
Q 1266 -881 1628 -881 
Q 2019 -881 2231 -725 
Q 2444 -569 2519 -288 
Q 2563 -116 2559 434 
Q 2191 0 1641 0 
Q 956 0 581 494 
Q 206 988 206 1678 
Q 206 2153 378 2554 
Q 550 2956 876 3175 
Q 1203 3394 1644 3394 
Q 2231 3394 2613 2919 
L 2613 3319 
L 3131 3319 
L 3131 450 
Q 3131 -325 2973 -648 
Q 2816 -972 2473 -1159 
Q 2131 -1347 1631 -1347 
Q 1038 -1347 672 -1080 
Q 306 -813 319 -275 
z
M 784 1719 
Q 784 1066 1043 766 
Q 1303 466 1694 466 
Q 2081 466 2343 764 
Q 2606 1063 2606 1700 
Q 2606 2309 2336 2618 
Q 2066 2928 1684 2928 
Q 1309 2928 1046 2623 
Q 784 2319 784 1719 
z
" transform="scale(0.015625)"/>
       </defs>
       <use xlink:href="#ArialMT-48"/>
       <use xlink:href="#ArialMT-69" transform="translate(72.216797 0)"/>
       <use xlink:href="#ArialMT-67" transform="translate(94.433594 0)"/>
       <use xlink:href="#ArialMT-68" transform="translate(150.048828 0)"/>
      </g>
     </g>
    </g>
    <g id="ytick_16">
     <g id="line2d_50">
      <path d="M 75.18 571.02625 
L 853.2 571.02625 
" clip-path="url(#p39236e0b05)" style="fill: none; stroke: #cccccc; stroke-width: 0.8; stroke-linecap: round"/>
     </g>
     <g id="line2d_51"/>
     <g id="text_29">
      <!-- High|zero -->
      <g style="fill: #262626" transform="translate(24.802812 575.030078) scale(0.11 -0.11)">
       <use xlink:href="#ArialMT-48"/>
       <use xlink:href="#ArialMT-69" transform="translate(72.216797 0)"/>
       <use xlink:href="#ArialMT-67" transform="translate(94.433594 0)"/>
       <use xlink:href="#ArialMT-68" transform="translate(150.048828 0)"/>
       <use xlink:href="#ArialMT-7c" transform="translate(205.664062 0)"/>
       <use xlink:href="#ArialMT-7a" transform="translate(231.640625 0)"/>
       <use xlink:href="#ArialMT-65" transform="translate(281.640625 0)"/>
       <use xlink:href="#ArialMT-72" transform="translate(337.255859 0)"/>
       <use xlink:href="#ArialMT-6f" transform="translate(370.556641 0)"/>
      </g>
     </g>
    </g>
    <g id="text_30">
     <!-- Anomaly type -->
     <g style="fill: #262626" transform="translate(18.698125 731.066719) rotate(-90) scale(0.1 -0.1)">
      <defs>
       <path id="Arial-BoldMT-74" d="M 1981 3319 
L 1981 2619 
L 1381 2619 
L 1381 1281 
Q 1381 875 1398 808 
Q 1416 741 1477 697 
Q 1538 653 1625 653 
Q 1747 653 1978 738 
L 2053 56 
Q 1747 -75 1359 -75 
Q 1122 -75 931 4 
Q 741 84 652 211 
Q 563 338 528 553 
Q 500 706 500 1172 
L 500 2619 
L 97 2619 
L 97 3319 
L 500 3319 
L 500 3978 
L 1381 4491 
L 1381 3319 
L 1981 3319 
z
" transform="scale(0.015625)"/>
       <path id="Arial-BoldMT-70" d="M 434 3319 
L 1253 3319 
L 1253 2831 
Q 1413 3081 1684 3237 
Q 1956 3394 2288 3394 
Q 2866 3394 3269 2941 
Q 3672 2488 3672 1678 
Q 3672 847 3265 386 
Q 2859 -75 2281 -75 
Q 2006 -75 1782 34 
Q 1559 144 1313 409 
L 1313 -1263 
L 434 -1263 
L 434 3319 
z
M 1303 1716 
Q 1303 1156 1525 889 
Q 1747 622 2066 622 
Q 2372 622 2575 867 
Q 2778 1113 2778 1672 
Q 2778 2194 2568 2447 
Q 2359 2700 2050 2700 
Q 1728 2700 1515 2451 
Q 1303 2203 1303 1716 
z
" transform="scale(0.015625)"/>
      </defs>
      <use xlink:href="#Arial-BoldMT-41"/>
      <use xlink:href="#Arial-BoldMT-6e" transform="translate(72.216797 0)"/>
      <use xlink:href="#Arial-BoldMT-6f" transform="translate(133.300781 0)"/>
      <use xlink:href="#Arial-BoldMT-6d" transform="translate(194.384766 0)"/>
      <use xlink:href="#Arial-BoldMT-61" transform="translate(283.300781 0)"/>
      <use xlink:href="#Arial-BoldMT-6c" transform="translate(338.916016 0)"/>
      <use xlink:href="#Arial-BoldMT-79" transform="translate(366.699219 0)"/>
      <use xlink:href="#Arial-BoldMT-20" transform="translate(422.314453 0)"/>
      <use xlink:href="#Arial-BoldMT-74" transform="translate(450.097656 0)"/>
      <use xlink:href="#Arial-BoldMT-79" transform="translate(483.398438 0)"/>
      <use xlink:href="#Arial-BoldMT-70" transform="translate(539.013672 0)"/>
      <use xlink:href="#Arial-BoldMT-65" transform="translate(600.097656 0)"/>
     </g>
    </g>
   </g>
   <g id="line2d_52">
    <path d="M 75.18 695.179299 
L 81.945391 695.179299 
L 88.710783 695.179299 
L 95.476174 695.179299 
L 102.241565 695.179299 
L 109.006957 695.179299 
L 115.772348 695.179299 
L 122.537739 695.179299 
L 129.30313 695.179299 
L 136.068522 695.179299 
L 142.833913 695.179299 
L 149.599304 695.179299 
L 156.364696 695.179299 
L 163.130087 695.179299 
L 169.895478 695.179299 
L 176.66087 695.179299 
L 183.426261 695.179299 
L 190.191652 695.179299 
L 196.957043 695.179299 
L 203.722435 695.179299 
L 210.487826 695.179299 
L 217.253217 695.179299 
L 224.018609 695.179299 
L 230.784 695.179299 
L 237.549391 695.179299 
L 244.314783 695.179299 
L 251.080174 695.179299 
L 257.845565 695.179299 
L 264.610957 695.179299 
L 271.376348 695.179299 
L 278.141739 695.179299 
L 284.90713 695.179299 
L 291.672522 695.179299 
L 298.437913 695.179299 
L 305.203304 695.179299 
L 311.968696 695.179299 
L 318.734087 695.179299 
L 325.499478 695.179299 
L 332.26487 695.179299 
L 339.030261 695.179299 
L 345.795652 695.179299 
L 352.561043 695.179299 
L 359.326435 695.179299 
L 366.091826 695.179299 
L 372.857217 695.179299 
L 379.622609 695.179299 
L 386.388 695.179299 
L 393.153391 695.179299 
L 399.918783 695.179299 
L 406.684174 695.179299 
L 413.449565 695.179299 
L 420.214957 695.179299 
L 426.980348 695.179299 
L 433.745739 695.179299 
L 440.51113 695.179299 
L 447.276522 695.179299 
L 454.041913 695.179299 
L 460.807304 695.179299 
L 467.572696 695.179299 
L 474.338087 695.179299 
L 481.103478 695.179299 
L 487.86887 695.179299 
L 494.634261 695.179299 
L 501.399652 695.179299 
L 508.165043 695.179299 
L 514.930435 695.179299 
L 521.695826 695.179299 
L 528.461217 695.179299 
L 535.226609 695.179299 
L 541.992 695.179299 
L 548.757391 695.179299 
L 555.522783 695.179299 
L 562.288174 695.179299 
L 569.053565 695.179299 
L 575.818957 695.179299 
L 582.584348 695.179299 
L 589.349739 695.179299 
L 596.11513 695.179299 
L 602.880522 695.179299 
L 609.645913 695.179299 
L 616.411304 695.179299 
L 623.176696 819.332348 
L 629.942087 819.332348 
L 636.707478 695.179299 
L 643.47287 695.179299 
L 650.238261 695.179299 
L 657.003652 695.179299 
L 663.769043 695.179299 
L 670.534435 695.179299 
L 677.299826 695.179299 
L 684.065217 695.179299 
L 690.830609 695.179299 
L 697.596 695.179299 
L 704.361391 695.179299 
L 711.126783 695.179299 
L 717.892174 695.179299 
L 724.657565 695.179299 
L 731.422957 695.179299 
L 738.188348 695.179299 
L 744.953739 695.179299 
L 751.71913 695.179299 
L 758.484522 695.179299 
L 765.249913 695.179299 
L 772.015304 695.179299 
L 778.780696 695.179299 
L 785.546087 695.179299 
L 792.311478 695.179299 
L 799.07687 695.179299 
L 805.842261 695.179299 
L 812.607652 695.179299 
L 819.373043 695.179299 
L 826.138435 695.179299 
L 832.903826 695.179299 
L 839.669217 695.179299 
L 846.434609 695.179299 
L 853.2 695.179299 
" clip-path="url(#p39236e0b05)" style="fill: none; stroke: #ff0000; stroke-width: 1.3; stroke-linecap: round"/>
   </g>
   <g id="patch_15">
    <path d="M 75.18 825.54 
L 75.18 571.02625 
" style="fill: none; stroke: #000000; stroke-width: 0.7; stroke-linejoin: miter; stroke-linecap: square"/>
   </g>
   <g id="patch_16">
    <path d="M 853.2 825.54 
L 853.2 571.02625 
" style="fill: none; stroke: #000000; stroke-width: 0.7; stroke-linejoin: miter; stroke-linecap: square"/>
   </g>
   <g id="patch_17">
    <path d="M 75.18 825.54 
L 853.2 825.54 
" style="fill: none; stroke: #000000; stroke-width: 0.7; stroke-linejoin: miter; stroke-linecap: square"/>
   </g>
   <g id="patch_18">
    <path d="M 75.18 571.02625 
L 853.2 571.02625 
" style="fill: none; stroke: #000000; stroke-width: 0.7; stroke-linejoin: miter; stroke-linecap: square"/>
   </g>
  </g>
  <g id="text_31">
   <!-- 1-steps ahead probabilistic prediction (PI=0.8) of the new set -->
   <g style="fill: #262626" transform="translate(259.141875 26.015625) scale(0.12 -0.12)">
    <defs>
     <path id="Arial-BoldMT-31" d="M 2519 0 
L 1641 0 
L 1641 3309 
Q 1159 2859 506 2644 
L 506 3441 
Q 850 3553 1253 3867 
Q 1656 4181 1806 4600 
L 2519 4600 
L 2519 0 
z
" transform="scale(0.015625)"/>
     <path id="Arial-BoldMT-2d" d="M 359 1222 
L 359 2100 
L 2084 2100 
L 2084 1222 
L 359 1222 
z
" transform="scale(0.015625)"/>
     <path id="Arial-BoldMT-73" d="M 150 947 
L 1031 1081 
Q 1088 825 1259 692 
Q 1431 559 1741 559 
Q 2081 559 2253 684 
Q 2369 772 2369 919 
Q 2369 1019 2306 1084 
Q 2241 1147 2013 1200 
Q 950 1434 666 1628 
Q 272 1897 272 2375 
Q 272 2806 612 3100 
Q 953 3394 1669 3394 
Q 2350 3394 2681 3172 
Q 3013 2950 3138 2516 
L 2309 2363 
Q 2256 2556 2107 2659 
Q 1959 2763 1684 2763 
Q 1338 2763 1188 2666 
Q 1088 2597 1088 2488 
Q 1088 2394 1175 2328 
Q 1294 2241 1995 2081 
Q 2697 1922 2975 1691 
Q 3250 1456 3250 1038 
Q 3250 581 2869 253 
Q 2488 -75 1741 -75 
Q 1063 -75 667 200 
Q 272 475 150 947 
z
" transform="scale(0.015625)"/>
     <path id="Arial-BoldMT-68" d="M 1334 4581 
L 1334 2897 
Q 1759 3394 2350 3394 
Q 2653 3394 2897 3281 
Q 3141 3169 3264 2994 
Q 3388 2819 3433 2606 
Q 3478 2394 3478 1947 
L 3478 0 
L 2600 0 
L 2600 1753 
Q 2600 2275 2550 2415 
Q 2500 2556 2373 2639 
Q 2247 2722 2056 2722 
Q 1838 2722 1666 2615 
Q 1494 2509 1414 2295 
Q 1334 2081 1334 1663 
L 1334 0 
L 456 0 
L 456 4581 
L 1334 4581 
z
" transform="scale(0.015625)"/>
     <path id="Arial-BoldMT-62" d="M 422 0 
L 422 4581 
L 1300 4581 
L 1300 2931 
Q 1706 3394 2263 3394 
Q 2869 3394 3266 2955 
Q 3663 2516 3663 1694 
Q 3663 844 3258 384 
Q 2853 -75 2275 -75 
Q 1991 -75 1714 67 
Q 1438 209 1238 488 
L 1238 0 
L 422 0 
z
M 1294 1731 
Q 1294 1216 1456 969 
Q 1684 619 2063 619 
Q 2353 619 2558 867 
Q 2763 1116 2763 1650 
Q 2763 2219 2556 2470 
Q 2350 2722 2028 2722 
Q 1713 2722 1503 2476 
Q 1294 2231 1294 1731 
z
" transform="scale(0.015625)"/>
     <path id="Arial-BoldMT-28" d="M 1916 -1347 
L 1313 -1347 
Q 834 -625 584 153 
Q 334 931 334 1659 
Q 334 2563 644 3369 
Q 913 4069 1325 4659 
L 1925 4659 
Q 1497 3713 1336 3048 
Q 1175 2384 1175 1641 
Q 1175 1128 1270 590 
Q 1366 53 1531 -431 
Q 1641 -750 1916 -1347 
z
" transform="scale(0.015625)"/>
     <path id="Arial-BoldMT-49" d="M 438 0 
L 438 4581 
L 1363 4581 
L 1363 0 
L 438 0 
z
" transform="scale(0.015625)"/>
     <path id="Arial-BoldMT-3d" d="M 266 2550 
L 266 3356 
L 3469 3356 
L 3469 2550 
L 266 2550 
z
M 266 1163 
L 266 1972 
L 3469 1972 
L 3469 1163 
L 266 1163 
z
" transform="scale(0.015625)"/>
     <path id="Arial-BoldMT-30" d="M 1756 4600 
Q 2422 4600 2797 4125 
Q 3244 3563 3244 2259 
Q 3244 959 2794 391 
Q 2422 -78 1756 -78 
Q 1088 -78 678 436 
Q 269 950 269 2269 
Q 269 3563 719 4131 
Q 1091 4600 1756 4600 
z
M 1756 3872 
Q 1597 3872 1472 3770 
Q 1347 3669 1278 3406 
Q 1188 3066 1188 2259 
Q 1188 1453 1269 1151 
Q 1350 850 1473 750 
Q 1597 650 1756 650 
Q 1916 650 2041 751 
Q 2166 853 2234 1116 
Q 2325 1453 2325 2259 
Q 2325 3066 2244 3367 
Q 2163 3669 2039 3770 
Q 1916 3872 1756 3872 
z
" transform="scale(0.015625)"/>
     <path id="Arial-BoldMT-2e" d="M 459 0 
L 459 878 
L 1338 878 
L 1338 0 
L 459 0 
z
" transform="scale(0.015625)"/>
     <path id="Arial-BoldMT-38" d="M 1025 2472 
Q 684 2616 529 2867 
Q 375 3119 375 3419 
Q 375 3931 733 4265 
Q 1091 4600 1750 4600 
Q 2403 4600 2764 4265 
Q 3125 3931 3125 3419 
Q 3125 3100 2959 2851 
Q 2794 2603 2494 2472 
Q 2875 2319 3073 2025 
Q 3272 1731 3272 1347 
Q 3272 713 2867 316 
Q 2463 -81 1791 -81 
Q 1166 -81 750 247 
Q 259 634 259 1309 
Q 259 1681 443 1992 
Q 628 2303 1025 2472 
z
M 1206 3356 
Q 1206 3094 1354 2947 
Q 1503 2800 1750 2800 
Q 2000 2800 2150 2948 
Q 2300 3097 2300 3359 
Q 2300 3606 2151 3754 
Q 2003 3903 1759 3903 
Q 1506 3903 1356 3753 
Q 1206 3603 1206 3356 
z
M 1125 1394 
Q 1125 1031 1311 828 
Q 1497 625 1775 625 
Q 2047 625 2225 820 
Q 2403 1016 2403 1384 
Q 2403 1706 2222 1901 
Q 2041 2097 1763 2097 
Q 1441 2097 1283 1875 
Q 1125 1653 1125 1394 
z
" transform="scale(0.015625)"/>
     <path id="Arial-BoldMT-29" d="M 216 -1347 
Q 475 -791 581 -494 
Q 688 -197 778 190 
Q 869 578 912 926 
Q 956 1275 956 1641 
Q 956 2384 797 3048 
Q 638 3713 209 4659 
L 806 4659 
Q 1278 3988 1539 3234 
Q 1800 2481 1800 1706 
Q 1800 1053 1594 306 
Q 1359 -531 822 -1347 
L 216 -1347 
z
" transform="scale(0.015625)"/>
     <path id="Arial-BoldMT-77" d="M 1078 0 
L 28 3319 
L 881 3319 
L 1503 1144 
L 2075 3319 
L 2922 3319 
L 3475 1144 
L 4109 3319 
L 4975 3319 
L 3909 0 
L 3066 0 
L 2494 2134 
L 1931 0 
L 1078 0 
z
" transform="scale(0.015625)"/>
    </defs>
    <use xlink:href="#Arial-BoldMT-31"/>
    <use xlink:href="#Arial-BoldMT-2d" transform="translate(55.615234 0)"/>
    <use xlink:href="#Arial-BoldMT-73" transform="translate(88.916016 0)"/>
    <use xlink:href="#Arial-BoldMT-74" transform="translate(144.53125 0)"/>
    <use xlink:href="#Arial-BoldMT-65" transform="translate(177.832031 0)"/>
    <use xlink:href="#Arial-BoldMT-70" transform="translate(233.447266 0)"/>
    <use xlink:href="#Arial-BoldMT-73" transform="translate(294.53125 0)"/>
    <use xlink:href="#Arial-BoldMT-20" transform="translate(350.146484 0)"/>
    <use xlink:href="#Arial-BoldMT-61" transform="translate(377.929688 0)"/>
    <use xlink:href="#Arial-BoldMT-68" transform="translate(433.544922 0)"/>
    <use xlink:href="#Arial-BoldMT-65" transform="translate(494.628906 0)"/>
    <use xlink:href="#Arial-BoldMT-61" transform="translate(550.244141 0)"/>
    <use xlink:href="#Arial-BoldMT-64" transform="translate(605.859375 0)"/>
    <use xlink:href="#Arial-BoldMT-20" transform="translate(666.943359 0)"/>
    <use xlink:href="#Arial-BoldMT-70" transform="translate(694.726562 0)"/>
    <use xlink:href="#Arial-BoldMT-72" transform="translate(755.810547 0)"/>
    <use xlink:href="#Arial-BoldMT-6f" transform="translate(794.726562 0)"/>
    <use xlink:href="#Arial-BoldMT-62" transform="translate(855.810547 0)"/>
    <use xlink:href="#Arial-BoldMT-61" transform="translate(916.894531 0)"/>
    <use xlink:href="#Arial-BoldMT-62" transform="translate(972.509766 0)"/>
    <use xlink:href="#Arial-BoldMT-69" transform="translate(1033.59375 0)"/>
    <use xlink:href="#Arial-BoldMT-6c" transform="translate(1061.376953 0)"/>
    <use xlink:href="#Arial-BoldMT-69" transform="translate(1089.160156 0)"/>
    <use xlink:href="#Arial-BoldMT-73" transform="translate(1116.943359 0)"/>
    <use xlink:href="#Arial-BoldMT-74" transform="translate(1172.558594 0)"/>
    <use xlink:href="#Arial-BoldMT-69" transform="translate(1205.859375 0)"/>
    <use xlink:href="#Arial-BoldMT-63" transform="translate(1233.642578 0)"/>
    <use xlink:href="#Arial-BoldMT-20" transform="translate(1289.257812 0)"/>
    <use xlink:href="#Arial-BoldMT-70" transform="translate(1317.041016 0)"/>
    <use xlink:href="#Arial-BoldMT-72" transform="translate(1378.125 0)"/>
    <use xlink:href="#Arial-BoldMT-65" transform="translate(1417.041016 0)"/>
    <use xlink:href="#Arial-BoldMT-64" transform="translate(1472.65625 0)"/>
    <use xlink:href="#Arial-BoldMT-69" transform="translate(1533.740234 0)"/>
    <use xlink:href="#Arial-BoldMT-63" transform="translate(1561.523438 0)"/>
    <use xlink:href="#Arial-BoldMT-74" transform="translate(1617.138672 0)"/>
    <use xlink:href="#Arial-BoldMT-69" transform="translate(1650.439453 0)"/>
    <use xlink:href="#Arial-BoldMT-6f" transform="translate(1678.222656 0)"/>
    <use xlink:href="#Arial-BoldMT-6e" transform="translate(1739.306641 0)"/>
    <use xlink:href="#Arial-BoldMT-20" transform="translate(1800.390625 0)"/>
    <use xlink:href="#Arial-BoldMT-28" transform="translate(1828.173828 0)"/>
    <use xlink:href="#Arial-BoldMT-50" transform="translate(1861.474609 0)"/>
    <use xlink:href="#Arial-BoldMT-49" transform="translate(1928.173828 0)"/>
    <use xlink:href="#Arial-BoldMT-3d" transform="translate(1955.957031 0)"/>
    <use xlink:href="#Arial-BoldMT-30" transform="translate(2014.355469 0)"/>
    <use xlink:href="#Arial-BoldMT-2e" transform="translate(2069.970703 0)"/>
    <use xlink:href="#Arial-BoldMT-38" transform="translate(2097.753906 0)"/>
    <use xlink:href="#Arial-BoldMT-29" transform="translate(2153.369141 0)"/>
    <use xlink:href="#Arial-BoldMT-20" transform="translate(2186.669922 0)"/>
    <use xlink:href="#Arial-BoldMT-6f" transform="translate(2214.453125 0)"/>
    <use xlink:href="#Arial-BoldMT-66" transform="translate(2275.537109 0)"/>
    <use xlink:href="#Arial-BoldMT-20" transform="translate(2308.837891 0)"/>
    <use xlink:href="#Arial-BoldMT-74" transform="translate(2336.621094 0)"/>
    <use xlink:href="#Arial-BoldMT-68" transform="translate(2369.921875 0)"/>
    <use xlink:href="#Arial-BoldMT-65" transform="translate(2431.005859 0)"/>
    <use xlink:href="#Arial-BoldMT-20" transform="translate(2486.621094 0)"/>
    <use xlink:href="#Arial-BoldMT-6e" transform="translate(2514.404297 0)"/>
    <use xlink:href="#Arial-BoldMT-65" transform="translate(2575.488281 0)"/>
    <use xlink:href="#Arial-BoldMT-77" transform="translate(2631.103516 0)"/>
    <use xlink:href="#Arial-BoldMT-20" transform="translate(2708.886719 0)"/>
    <use xlink:href="#Arial-BoldMT-73" transform="translate(2736.669922 0)"/>
    <use xlink:href="#Arial-BoldMT-65" transform="translate(2792.285156 0)"/>
    <use xlink:href="#Arial-BoldMT-74" transform="translate(2847.900391 0)"/>
   </g>
  </g>
 </g>
 <defs>
  <clipPath id="pc5bc3f4c64">
   <rect x="75.18" y="32.47875" width="778.02" height="254.51375"/>
  </clipPath>
  <clipPath id="pf494f23c5e">
   <rect x="75.18" y="301.7525" width="778.02" height="254.51375"/>
  </clipPath>
  <clipPath id="p39236e0b05">
   <rect x="75.18" y="571.02625" width="778.02" height="254.51375"/>
  </clipPath>
 </defs>
</svg>
