Timestamps,PV_feed[kW],Irradiance_forecast[W/m2]
2022-08-17 00:00:00,0.0,0
2022-08-17 01:00:00,0.0,0
2022-08-17 02:00:00,0.0,0
2022-08-17 03:00:00,0.0,0
2022-08-17 04:00:00,0.04155,30
2022-08-17 05:00:00,0.30475,75
2022-08-17 06:00:00,1.21979,203
2022-08-17 07:00:00,2.18913,415
2022-08-17 08:00:00,3.18165,533
2022-08-17 09:00:00,3.77161,637
2022-08-17 10:00:00,4.205,687
2022-08-17 11:00:00,3.74355,593
2022-08-17 12:00:00,2.39393,451
2022-08-17 13:00:00,2.55018,451
2022-08-17 14:00:00,2.03294,308
2022-08-17 15:00:00,1.06103,175
2022-08-17 16:00:00,0.3076399999999999,117
2022-08-17 17:00:00,0.27926,51
2022-08-17 18:00:00,0.04461,10
2022-08-17 19:00:00,0.0,0
2022-08-17 20:00:00,0.0,0
2022-08-17 21:00:00,0.0,0
2022-08-17 22:00:00,0.0,0
2022-08-17 23:00:00,0.0,0
2022-08-18 00:00:00,0.0,0
2022-08-18 01:00:00,0.0,0
2022-08-18 02:00:00,0.0,0
2022-08-18 03:00:00,0.0,0
2022-08-18 04:00:00,0.0,5
2022-08-18 05:00:00,0.14687,35
2022-08-18 06:00:00,0.28604,158
2022-08-18 07:00:00,2.12842,418
2022-08-18 08:00:00,3.22057,526
2022-08-18 09:00:00,3.8965,627
2022-08-18 10:00:00,4.320709999999999,677
2022-08-18 11:00:00,4.513750000000001,686
2022-08-18 12:00:00,4.31901,652
2022-08-18 13:00:00,3.61704,580
2022-08-18 14:00:00,2.74903,475
2022-08-18 15:00:00,2.10547,347
2022-08-18 16:00:00,1.15207,203
2022-08-18 17:00:00,0.30416,86
2022-08-18 18:00:00,0.04255,10
2022-08-18 19:00:00,0.0,0
2022-08-18 20:00:00,0.0,0
2022-08-18 21:00:00,0.0,0
2022-08-18 22:00:00,0.0,0
2022-08-18 23:00:00,0.0,0
2022-08-19 00:00:00,0.0,0
2022-08-19 01:00:00,0.0,0
2022-08-19 02:00:00,0.0,0
2022-08-19 03:00:00,0.0,0
2022-08-19 04:00:00,0.01258,12
2022-08-19 05:00:00,0.12676,33
2022-08-19 06:00:00,0.73237,93
2022-08-19 07:00:00,0.7895599999999999,171
2022-08-19 08:00:00,1.4867,221
2022-08-19 09:00:00,1.28265,235
2022-08-19 10:00:00,1.19422,239
2022-08-19 11:00:00,1.20851,202
2022-08-19 12:00:00,0.74852,168
2022-08-19 13:00:00,0.2877099999999999,119
2022-08-19 14:00:00,0.22192,121
2022-08-19 15:00:00,0.33032,87
2022-08-19 16:00:00,0.25177,71
2022-08-19 17:00:00,0.1446899999999999,39
2022-08-19 18:00:00,0.00415,5
2022-08-19 19:00:00,0.0,0
2022-08-19 20:00:00,0.0,0
2022-08-19 21:00:00,0.0,0
2022-08-19 22:00:00,0.0,0
2022-08-19 23:00:00,0.0,0
2022-08-20 00:00:00,0.0,0
2022-08-20 01:00:00,0.0,0
2022-08-20 02:00:00,0.0,0
2022-08-20 03:00:00,0.0,0
2022-08-20 04:00:00,0.03346,7
2022-08-20 05:00:00,0.2784899999999999,47
2022-08-20 06:00:00,0.7942300000000001,205
2022-08-20 07:00:00,1.11369,283
2022-08-20 08:00:00,1.4606,352
2022-08-20 09:00:00,2.52311,467
2022-08-20 10:00:00,4.4642,679
2022-08-20 11:00:00,4.56686,590
2022-08-20 12:00:00,3.53704,609
2022-08-20 13:00:00,3.64308,577
2022-08-20 14:00:00,3.32455,431
2022-08-20 15:00:00,2.43637,332
2022-08-20 16:00:00,0.61457,141
2022-08-20 17:00:00,0.17696,69
2022-08-20 18:00:00,0.06777,6
2022-08-20 19:00:00,0.0,0
2022-08-20 20:00:00,0.0,0
2022-08-20 21:00:00,0.0,0
2022-08-20 22:00:00,0.0,0
2022-08-20 23:00:00,0.0,0
2022-08-21 00:00:00,0.0,0
2022-08-21 01:00:00,0.0,0
2022-08-21 02:00:00,0.0,0
2022-08-21 03:00:00,0.0,0
2022-08-21 04:00:00,0.0665,33
2022-08-21 05:00:00,0.28067,168
2022-08-21 06:00:00,1.2634299999999998,315
2022-08-21 07:00:00,2.41272,455
2022-08-21 08:00:00,3.44828,574
2022-08-21 09:00:00,4.1662,587
2022-08-21 10:00:00,3.41668,596
2022-08-21 11:00:00,3.33909,556
2022-08-21 12:00:00,2.99778,563
2022-08-21 13:00:00,3.29135,481
2022-08-21 14:00:00,3.05358,464
2022-08-21 15:00:00,2.25837,367
2022-08-21 16:00:00,0.8628300000000001,221
2022-08-21 17:00:00,0.14312,63
2022-08-21 18:00:00,0.0006399999999999,7
2022-08-21 19:00:00,0.0,0
2022-08-21 20:00:00,0.0,0
2022-08-21 21:00:00,0.0,0
2022-08-21 22:00:00,0.0,0
2022-08-21 23:00:00,0.0,0
2022-08-22 00:00:00,0.0,0
2022-08-22 01:00:00,0.0,0
2022-08-22 02:00:00,0.0,0
2022-08-22 03:00:00,0.0,0
2022-08-22 04:00:00,0.03276,42
2022-08-22 05:00:00,0.23692,166
2022-08-22 06:00:00,1.39562,311
2022-08-22 07:00:00,2.64508,452
2022-08-22 08:00:00,3.4533,564
2022-08-22 09:00:00,4.084219999999999,490
2022-08-22 10:00:00,2.01261,440
2022-08-22 11:00:00,1.07058,415
2022-08-22 12:00:00,4.15732,436
2022-08-22 13:00:00,1.17377,396
2022-08-22 14:00:00,2.9593900000000004,358
2022-08-22 15:00:00,1.84876,212
2022-08-22 16:00:00,0.91922,128
2022-08-22 17:00:00,0.43161,62
2022-08-22 18:00:00,0.04502,6
2022-08-22 19:00:00,0.0,0
2022-08-22 20:00:00,0.0,0
2022-08-22 21:00:00,0.0,0
2022-08-22 22:00:00,0.0,0
2022-08-22 23:00:00,0.0,0
2022-08-23 00:00:00,0.0,0
2022-08-23 01:00:00,0.0,0
2022-08-23 02:00:00,0.0,0
2022-08-23 03:00:00,0.0,0
2022-08-23 04:00:00,0.03881,10
2022-08-23 05:00:00,0.37368,92
2022-08-23 06:00:00,0.8084699999999999,206
2022-08-23 07:00:00,2.42241,430
2022-08-23 08:00:00,3.30714,553
2022-08-23 09:00:00,4.03789,643
2022-08-23 10:00:00,4.419989999999999,695
2022-08-23 11:00:00,4.55894,705
2022-08-23 12:00:00,4.39629,673
2022-08-23 13:00:00,3.96487,600
2022-08-23 14:00:00,3.23583,493
2022-08-23 15:00:00,2.24261,360
2022-08-23 16:00:00,1.10218,216
2022-08-23 17:00:00,0.21639,84
2022-08-23 18:00:00,0.01446,5
2022-08-23 19:00:00,0.0,0
2022-08-23 20:00:00,0.0,0
2022-08-23 21:00:00,0.0,0
2022-08-23 22:00:00,0.0,0
2022-08-23 23:00:00,0.0,0
2022-08-24 00:00:00,0.0,0
2022-08-24 01:00:00,0.0,0
2022-08-24 02:00:00,0.0,0
2022-08-24 03:00:00,0.0,0
2022-08-24 04:00:00,0.0285799999999999,34
2022-08-24 05:00:00,0.18516,153
2022-08-24 06:00:00,1.28848,296
2022-08-24 07:00:00,2.5488700000000004,434
2022-08-24 08:00:00,3.14826,555
2022-08-24 09:00:00,4.181260000000001,648
2022-08-24 10:00:00,4.47546,700
2022-08-24 11:00:00,4.593039999999999,709
2022-08-24 12:00:00,4.43458,676
2022-08-24 13:00:00,4.0292,603
2022-08-24 14:00:00,3.31115,495
2022-08-24 15:00:00,2.33591,363
2022-08-24 16:00:00,1.1458,219
2022-08-24 17:00:00,0.18131,84
2022-08-24 18:00:00,0.01527,5
2022-08-24 19:00:00,0.0,0
2022-08-24 20:00:00,0.0,0
2022-08-24 21:00:00,0.0,0
2022-08-24 22:00:00,0.0,0
2022-08-24 23:00:00,0.0,0
2022-08-25 00:00:00,0.0,0
2022-08-25 01:00:00,0.0,0
2022-08-25 02:00:00,0.0,0
2022-08-25 03:00:00,0.0,0
2022-08-25 04:00:00,0.01881,32
2022-08-25 05:00:00,0.14705,149
2022-08-25 06:00:00,1.29954,291
2022-08-25 07:00:00,2.26546,361
2022-08-25 08:00:00,1.95774,474
2022-08-25 09:00:00,3.18228,573
2022-08-25 10:00:00,4.71251,606
2022-08-25 11:00:00,4.6847900000000005,671
2022-08-25 12:00:00,3.93218,603
2022-08-25 13:00:00,1.82009,477
2022-08-25 14:00:00,1.38241,406
2022-08-25 15:00:00,1.21272,284
2022-08-25 16:00:00,0.83286,88
2022-08-25 17:00:00,0.1345599999999999,38
2022-08-25 18:00:00,0.00281,2
2022-08-25 19:00:00,0.0,0
2022-08-25 20:00:00,0.0,0
2022-08-25 21:00:00,0.0,0
2022-08-25 22:00:00,0.0,0
2022-08-25 23:00:00,0.0,0
2022-08-26 00:00:00,0.0,0
2022-08-26 01:00:00,0.0,0
2022-08-26 02:00:00,0.0,0
2022-08-26 03:00:00,0.0,0
2022-08-26 04:00:00,0.03816,17
2022-08-26 05:00:00,0.2278,123
2022-08-26 06:00:00,0.98206,262
2022-08-26 07:00:00,2.23556,383
2022-08-26 08:00:00,2.97017,478
2022-08-26 09:00:00,3.30159,595
2022-08-26 10:00:00,4.3165,653
2022-08-26 11:00:00,4.45861,662
2022-08-26 12:00:00,4.20305,616
2022-08-26 13:00:00,3.4982900000000003,536
2022-08-26 14:00:00,2.76479,438
2022-08-26 15:00:00,1.6417400000000002,242
2022-08-26 16:00:00,1.23381,95
2022-08-26 17:00:00,0.33581,37
2022-08-26 18:00:00,0.00636,1
2022-08-26 19:00:00,0.0,0
2022-08-26 20:00:00,0.0,0
2022-08-26 21:00:00,0.0,0
2022-08-26 22:00:00,0.0,0
2022-08-26 23:00:00,0.0,0
2022-08-27 00:00:00,0.0,0
2022-08-27 01:00:00,0.0,0
2022-08-27 02:00:00,0.0,0
2022-08-27 03:00:00,0.0,0
2022-08-27 04:00:00,0.0,3
2022-08-27 05:00:00,0.00889,9
2022-08-27 06:00:00,0.0581599999999999,12
2022-08-27 07:00:00,0.08774,34
2022-08-27 08:00:00,0.43669,123
2022-08-27 09:00:00,0.6732,180
2022-08-27 10:00:00,0.50649,202
2022-08-27 11:00:00,0.56272,181
2022-08-27 12:00:00,0.61271,172
2022-08-27 13:00:00,1.66427,148
2022-08-27 14:00:00,1.41402,114
2022-08-27 15:00:00,0.8788300000000001,73
2022-08-27 16:00:00,0.38935,34
2022-08-27 17:00:00,0.17321,9
2022-08-27 18:00:00,0.0204899999999999,0
2022-08-27 19:00:00,0.0,0
2022-08-27 20:00:00,0.0,0
2022-08-27 21:00:00,0.0,0
2022-08-27 22:00:00,0.0,0
2022-08-27 23:00:00,0.0,0
2022-08-28 00:00:00,0.0,0
2022-08-28 01:00:00,0.0,0
2022-08-28 02:00:00,0.0,0
2022-08-28 03:00:00,0.0,0
2022-08-28 04:00:00,0.0,4
2022-08-28 05:00:00,0.0062599999999999,23
2022-08-28 06:00:00,0.32311,60
2022-08-28 07:00:00,0.31639,105
2022-08-28 08:00:00,1.05112,148
2022-08-28 09:00:00,3.726890000000001,180
2022-08-28 10:00:00,1.18677,198
2022-08-28 11:00:00,1.05601,200
2022-08-28 12:00:00,2.47053,188
2022-08-28 13:00:00,0.68485,161
2022-08-28 14:00:00,0.82592,123
2022-08-28 15:00:00,1.04897,78
2022-08-28 16:00:00,0.86036,37
2022-08-28 17:00:00,0.16915,10
2022-08-28 18:00:00,0.00187,0
2022-08-28 19:00:00,0.0,0
2022-08-28 20:00:00,0.0,0
2022-08-28 21:00:00,0.0,0
2022-08-28 22:00:00,0.0,0
2022-08-28 23:00:00,0.0,0
2022-08-29 00:00:00,0.0,0
2022-08-29 01:00:00,0.0,0
2022-08-29 02:00:00,0.0,0
2022-08-29 03:00:00,0.0,0
2022-08-29 04:00:00,0.0,4
2022-08-29 05:00:00,0.07393,25
2022-08-29 06:00:00,0.23666,67
2022-08-29 07:00:00,0.54022,141
2022-08-29 08:00:00,0.74426,226
2022-08-29 09:00:00,0.95897,316
2022-08-29 10:00:00,2.00093,394
2022-08-29 11:00:00,3.10028,421
2022-08-29 12:00:00,1.13829,253
2022-08-29 13:00:00,0.88163,194
2022-08-29 14:00:00,0.7767499999999999,160
2022-08-29 15:00:00,0.55808,148
2022-08-29 16:00:00,0.4255,103
2022-08-29 17:00:00,0.1087699999999999,42
2022-08-29 18:00:00,9e-05,1
2022-08-29 19:00:00,0.0,0
2022-08-29 20:00:00,0.0,0
2022-08-29 21:00:00,0.0,0
2022-08-29 22:00:00,0.0,0
2022-08-29 23:00:00,0.0,0
2022-08-30 00:00:00,0.0,0
2022-08-30 01:00:00,0.0,0
2022-08-30 02:00:00,0.0,0
2022-08-30 03:00:00,0.0,0
2022-08-30 04:00:00,0.02156,11
2022-08-30 05:00:00,0.19438,111
2022-08-30 06:00:00,1.3970900000000002,281
2022-08-30 07:00:00,2.66065,431
2022-08-30 08:00:00,3.62115,553
2022-08-30 09:00:00,4.32504,644
2022-08-30 10:00:00,4.7106,696
2022-08-30 11:00:00,4.76344,705
2022-08-30 12:00:00,4.56651,670
2022-08-30 13:00:00,4.13289,593
2022-08-30 14:00:00,3.36626,482
2022-08-30 15:00:00,2.4067700000000003,345
2022-08-30 16:00:00,1.0655,197
2022-08-30 17:00:00,0.11917,61
2022-08-30 18:00:00,0.00299,1
2022-08-30 19:00:00,0.0,0
2022-08-30 20:00:00,0.0,0
2022-08-30 21:00:00,0.0,0
2022-08-30 22:00:00,0.0,0
2022-08-30 23:00:00,0.0,0
2022-08-31 00:00:00,0.0,0
2022-08-31 01:00:00,0.0,0
2022-08-31 02:00:00,0.0,0
2022-08-31 03:00:00,0.0,0
2022-08-31 04:00:00,0.00913,22
2022-08-31 05:00:00,0.13674,136
2022-08-31 06:00:00,1.3165,281
2022-08-31 07:00:00,2.5915,422
2022-08-31 08:00:00,3.53389,526
2022-08-31 09:00:00,3.78545,427
2022-08-31 10:00:00,3.95495,415
2022-08-31 11:00:00,2.89494,416
2022-08-31 12:00:00,1.7030900000000002,336
2022-08-31 13:00:00,1.09598,333
2022-08-31 14:00:00,2.03977,252
2022-08-31 15:00:00,1.01469,199
2022-08-31 16:00:00,1.03046,123
2022-08-31 17:00:00,0.15193,49
2022-08-31 18:00:00,0.00323,0
2022-08-31 19:00:00,0.0,0
2022-08-31 20:00:00,0.0,0
2022-08-31 21:00:00,0.0,0
2022-08-31 22:00:00,0.0,0
2022-08-31 23:00:00,0.0,0
2022-09-01 00:00:00,0.0,0
2022-09-01 01:00:00,0.0,0
2022-09-01 02:00:00,0.0,0
2022-09-01 03:00:00,0.0,0
2022-09-01 04:00:00,0.00665,20
2022-09-01 05:00:00,0.1307,133
2022-09-01 06:00:00,1.3007,279
2022-09-01 07:00:00,2.58718,420
2022-09-01 08:00:00,3.53008,541
2022-09-01 09:00:00,4.173649999999999,631
2022-09-01 10:00:00,4.530349999999999,683
2022-09-01 11:00:00,4.72459,688
2022-09-01 12:00:00,3.6998,628
2022-09-01 13:00:00,4.0614300000000005,570
2022-09-01 14:00:00,2.99988,466
2022-09-01 15:00:00,2.26712,331
2022-09-01 16:00:00,1.00641,185
2022-09-01 17:00:00,0.11105,52
2022-09-01 18:00:00,0.00275,0
2022-09-01 19:00:00,0.0,0
2022-09-01 20:00:00,0.0,0
2022-09-01 21:00:00,0.0,0
2022-09-01 22:00:00,0.0,0
2022-09-01 23:00:00,0.0,0
2022-09-02 00:00:00,0.0,0
2022-09-02 01:00:00,0.0,0
2022-09-02 02:00:00,0.0,0
2022-09-02 03:00:00,0.0,0
2022-09-02 04:00:00,0.00604,18
2022-09-02 05:00:00,0.13162,128
2022-09-02 06:00:00,1.28874,272
2022-09-02 07:00:00,2.54903,413
2022-09-02 08:00:00,3.46158,518
2022-09-02 09:00:00,4.12983,531
2022-09-02 10:00:00,4.58108,572
2022-09-02 11:00:00,4.129700000000001,485
2022-09-02 12:00:00,3.03586,534
2022-09-02 13:00:00,2.46039,538
2022-09-02 14:00:00,3.23696,454
2022-09-02 15:00:00,2.14578,317
2022-09-02 16:00:00,0.94471,171
2022-09-02 17:00:00,0.10829,46
2022-09-02 18:00:00,0.00059,0
2022-09-02 19:00:00,0.0,0
2022-09-02 20:00:00,0.0,0
2022-09-02 21:00:00,0.0,0
2022-09-02 22:00:00,0.0,0
2022-09-02 23:00:00,0.0,0
2022-09-03 00:00:00,0.0,0
2022-09-03 01:00:00,0.0,0
2022-09-03 02:00:00,0.0,0
2022-09-03 03:00:00,0.0,0
2022-09-03 04:00:00,0.0,1
2022-09-03 05:00:00,0.03941,22
2022-09-03 06:00:00,0.13575,160
2022-09-03 07:00:00,0.90935,240
2022-09-03 08:00:00,1.99692,179
2022-09-03 09:00:00,0.86878,142
2022-09-03 10:00:00,1.42795,394
2022-09-03 11:00:00,3.88373,582
2022-09-03 12:00:00,3.79614,620
2022-09-03 13:00:00,4.15021,552
2022-09-03 14:00:00,2.9207300000000003,443
2022-09-03 15:00:00,2.23102,309
2022-09-03 16:00:00,0.93812,166
2022-09-03 17:00:00,0.13663,41
2022-09-03 18:00:00,0.00041,0
2022-09-03 19:00:00,0.0,0
2022-09-03 20:00:00,0.0,0
2022-09-03 21:00:00,0.0,0
2022-09-03 22:00:00,0.0,0
2022-09-03 23:00:00,0.0,0
2022-09-04 00:00:00,0.0,0
2022-09-04 01:00:00,0.0,0
2022-09-04 02:00:00,0.0,0
2022-09-04 03:00:00,0.0,0
2022-09-04 04:00:00,0.00053,13
2022-09-04 05:00:00,0.12993,100
2022-09-04 06:00:00,1.27264,221
2022-09-04 07:00:00,1.59634,327
2022-09-04 08:00:00,2.87429,488
2022-09-04 09:00:00,3.34586,604
2022-09-04 10:00:00,3.85504,639
2022-09-04 11:00:00,3.26251,610
2022-09-04 12:00:00,4.13953,624
2022-09-04 13:00:00,4.06972,547
2022-09-04 14:00:00,2.80562,421
2022-09-04 15:00:00,2.18613,299
2022-09-04 16:00:00,0.65572,136
2022-09-04 17:00:00,0.11274,35
2022-09-04 18:00:00,1e-05,0
2022-09-04 19:00:00,0.0,0
2022-09-04 20:00:00,0.0,0
2022-09-04 21:00:00,0.0,0
2022-09-04 22:00:00,0.0,0
2022-09-04 23:00:00,0.0,0
2022-09-05 00:00:00,0.0,0
2022-09-05 01:00:00,0.0,0
2022-09-05 02:00:00,0.0,0
2022-09-05 03:00:00,0.0,0
2022-09-05 04:00:00,0.0018599999999999,11
2022-09-05 05:00:00,0.1416099999999999,106
2022-09-05 06:00:00,1.22306,245
2022-09-05 07:00:00,2.32315,385
2022-09-05 08:00:00,3.36886,506
2022-09-05 09:00:00,4.186979999999999,596
2022-09-05 10:00:00,4.59808,648
2022-09-05 11:00:00,4.507359999999999,574
2022-09-05 12:00:00,3.6535600000000006,489
2022-09-05 13:00:00,3.02322,441
2022-09-05 14:00:00,1.62767,215
2022-09-05 15:00:00,0.63844,110
2022-09-05 16:00:00,0.35192,83
2022-09-05 17:00:00,0.07618,24
2022-09-05 18:00:00,0.0,0
2022-09-05 19:00:00,0.0,0
2022-09-05 20:00:00,0.0,0
2022-09-05 21:00:00,0.0,0
2022-09-05 22:00:00,0.0,0
2022-09-05 23:00:00,0.0,0
2022-09-06 00:00:00,0.0,0
2022-09-06 01:00:00,0.0,0
2022-09-06 02:00:00,0.0,0
2022-09-06 03:00:00,0.0,0
2022-09-06 04:00:00,0.00839,6
2022-09-06 05:00:00,0.14227,83
2022-09-06 06:00:00,0.94517,186
2022-09-06 07:00:00,2.17233,300
2022-09-06 08:00:00,2.70495,451
2022-09-06 09:00:00,3.45153,549
2022-09-06 10:00:00,3.91088,645
2022-09-06 11:00:00,4.47268,654
2022-09-06 12:00:00,4.64635,616
2022-09-06 13:00:00,4.15718,536
2022-09-06 14:00:00,2.62213,431
2022-09-06 15:00:00,1.74252,290
2022-09-06 16:00:00,0.7563599999999999,142
2022-09-06 17:00:00,0.0767,30
2022-09-06 18:00:00,0.0,0
2022-09-06 19:00:00,0.0,0
2022-09-06 20:00:00,0.0,0
2022-09-06 21:00:00,0.0,0
2022-09-06 22:00:00,0.0,0
2022-09-06 23:00:00,0.0,0
2022-09-07 00:00:00,0.0,0
2022-09-07 01:00:00,0.0,0
2022-09-07 02:00:00,0.0,0
2022-09-07 03:00:00,0.0,0
2022-09-07 04:00:00,0.0058,4
2022-09-07 05:00:00,0.25052,49
2022-09-07 06:00:00,1.1188900000000002,144
2022-09-07 07:00:00,1.47314,175
2022-09-07 08:00:00,1.61589,304
2022-09-07 09:00:00,2.34392,405
2022-09-07 10:00:00,3.10975,613
2022-09-07 11:00:00,4.53802,580
2022-09-07 12:00:00,3.66548,454
2022-09-07 13:00:00,2.51676,308
2022-09-07 14:00:00,1.14038,157
2022-09-07 15:00:00,0.5638299999999999,71
2022-09-07 16:00:00,0.15637,39
2022-09-07 17:00:00,0.00888,12
2022-09-07 18:00:00,0.0,0
2022-09-07 19:00:00,0.0,0
2022-09-07 20:00:00,0.0,0
2022-09-07 21:00:00,0.0,0
2022-09-07 22:00:00,0.0,0
2022-09-07 23:00:00,0.0,0
2022-09-08 00:00:00,0.0,0
2022-09-08 01:00:00,0.0,0
2022-09-08 02:00:00,0.0,0
2022-09-08 03:00:00,0.0,0
2022-09-08 04:00:00,1e-05,3
2022-09-08 05:00:00,0.15757,46
2022-09-08 06:00:00,0.9829,220
2022-09-08 07:00:00,1.76023,333
2022-09-08 08:00:00,3.0786,466
2022-09-08 09:00:00,3.63453,477
2022-09-08 10:00:00,2.32059,350
2022-09-08 11:00:00,2.00808,312
2022-09-08 12:00:00,1.64925,202
2022-09-08 13:00:00,0.88438,116
2022-09-08 14:00:00,0.49092,76
2022-09-08 15:00:00,0.21531,47
2022-09-08 16:00:00,0.03472,28
2022-09-08 17:00:00,0.00406,9
2022-09-08 18:00:00,0.0,0
2022-09-08 19:00:00,0.0,0
2022-09-08 20:00:00,0.0,0
2022-09-08 21:00:00,0.0,0
2022-09-08 22:00:00,0.0,0
2022-09-08 23:00:00,0.0,0
2022-09-09 00:00:00,0.0,0
2022-09-09 01:00:00,0.0,0
2022-09-09 02:00:00,0.0,0
2022-09-09 03:00:00,0.0,0
2022-09-09 04:00:00,0.0,0
2022-09-09 05:00:00,0.0622,7
2022-09-09 06:00:00,0.14823,58
2022-09-09 07:00:00,0.8832800000000001,206
2022-09-09 08:00:00,1.44733,239
2022-09-09 09:00:00,1.36796,236
2022-09-09 10:00:00,1.99861,337
2022-09-09 11:00:00,1.77111,245
2022-09-09 12:00:00,1.38095,361
2022-09-09 13:00:00,2.04601,427
2022-09-09 14:00:00,2.64671,300
2022-09-09 15:00:00,1.52513,235
2022-09-09 16:00:00,0.41744,87
2022-09-09 17:00:00,0.0448799999999999,18
2022-09-09 18:00:00,0.0,0
2022-09-09 19:00:00,0.0,0
2022-09-09 20:00:00,0.0,0
2022-09-09 21:00:00,0.0,0
2022-09-09 22:00:00,0.0,0
2022-09-09 23:00:00,0.0,0
2022-09-10 00:00:00,0.0,0
2022-09-10 01:00:00,0.0,0
2022-09-10 02:00:00,0.0,0
2022-09-10 03:00:00,0.0,0
2022-09-10 04:00:00,0.0,4
2022-09-10 05:00:00,0.3260099999999999,34
2022-09-10 06:00:00,1.56285,148
2022-09-10 07:00:00,1.66219,312
2022-09-10 08:00:00,2.41248,383
2022-09-10 09:00:00,2.62579,283
2022-09-10 10:00:00,3.88607,368
2022-09-10 11:00:00,3.1704100000000004,412
2022-09-10 12:00:00,1.74838,328
2022-09-10 13:00:00,1.8209,256
2022-09-10 14:00:00,2.26444,217
2022-09-10 15:00:00,0.4323099999999999,243
2022-09-10 16:00:00,0.11852,116
2022-09-10 17:00:00,0.0311399999999999,15
2022-09-10 18:00:00,0.0,0
2022-09-10 19:00:00,0.0,0
2022-09-10 20:00:00,0.0,0
2022-09-10 21:00:00,0.0,0
2022-09-10 22:00:00,0.0,0
2022-09-10 23:00:00,0.0,0
2022-09-11 00:00:00,0.0,0
2022-09-11 01:00:00,0.0,0
2022-09-11 02:00:00,0.0,0
2022-09-11 03:00:00,0.0,0
2022-09-11 04:00:00,0.0,3
2022-09-11 05:00:00,0.15647,29
2022-09-11 06:00:00,0.33674,93
2022-09-11 07:00:00,0.9737,224
2022-09-11 08:00:00,1.53087,302
2022-09-11 09:00:00,1.56039,279
2022-09-11 10:00:00,2.06642,203
2022-09-11 11:00:00,1.3552799999999998,272
2022-09-11 12:00:00,3.0965900000000004,421
2022-09-11 13:00:00,3.15237,415
2022-09-11 14:00:00,2.7007,383
2022-09-11 15:00:00,1.9802,238
2022-09-11 16:00:00,0.65766,109
2022-09-11 17:00:00,0.03945,15
2022-09-11 18:00:00,0.0,0
2022-09-11 19:00:00,0.0,0
2022-09-11 20:00:00,0.0,0
2022-09-11 21:00:00,0.0,0
2022-09-11 22:00:00,0.0,0
2022-09-11 23:00:00,0.0,0
2022-09-12 00:00:00,0.0,0
2022-09-12 01:00:00,0.0,0
2022-09-12 02:00:00,0.0,0
2022-09-12 03:00:00,0.0,0
2022-09-12 04:00:00,0.0,4
2022-09-12 05:00:00,0.16674,52
2022-09-12 06:00:00,1.30521,215
2022-09-12 07:00:00,1.8215,360
2022-09-12 08:00:00,2.3792500000000003,437
2022-09-12 09:00:00,3.58374,484
2022-09-12 10:00:00,4.1568,501
2022-09-12 11:00:00,3.06639,478
2022-09-12 12:00:00,2.05618,422
2022-09-12 13:00:00,2.05253,338
2022-09-12 14:00:00,1.3335099999999998,240
2022-09-12 15:00:00,0.86865,128
2022-09-12 16:00:00,0.26152,55
2022-09-12 17:00:00,0.03862,8
2022-09-12 18:00:00,0.0,0
2022-09-12 19:00:00,0.0,0
2022-09-12 20:00:00,0.0,0
2022-09-12 21:00:00,0.0,0
2022-09-12 22:00:00,0.0,0
2022-09-12 23:00:00,0.0,0
2022-09-13 00:00:00,0.0,0
2022-09-13 01:00:00,0.0,0
2022-09-13 02:00:00,0.0,0
2022-09-13 03:00:00,0.0,0
2022-09-13 04:00:00,0.0,0
2022-09-13 05:00:00,0.02693,34
2022-09-13 06:00:00,0.6722199999999999,117
2022-09-13 07:00:00,0.8164699999999999,291
2022-09-13 08:00:00,2.84478,429
2022-09-13 09:00:00,3.01173,457
2022-09-13 10:00:00,4.36503,599
2022-09-13 11:00:00,3.30109,559
2022-09-13 12:00:00,3.85565,528
2022-09-13 13:00:00,2.17289,353
2022-09-13 14:00:00,0.9612,165
2022-09-13 15:00:00,1.52907,205
2022-09-13 16:00:00,0.52117,93
2022-09-13 17:00:00,0.0472099999999999,8
2022-09-13 18:00:00,0.0,0
2022-09-13 19:00:00,0.0,0
2022-09-13 20:00:00,0.0,0
2022-09-13 21:00:00,0.0,0
2022-09-13 22:00:00,0.0,0
2022-09-13 23:00:00,0.0,0
